9/simulation/qsim/Practical1.msim.vcd
$comment
	File created using the following command:
		vcd file Practical1.msim.vcd -direction
$end
$date
	Thu Jun 17 16:16:09 2021
$end
$version
	ModelSim Version 10.5b
$end
$timescale
	1ps
$end

$scope module Practical1_vlg_vec_tst $end
$var reg 1 ! Hold $end
$var reg 1 " R $end
$var reg 1 # S $end
$var reg 1 $ Start $end
$var wire 1 % Count $end
$var wire 1 & Special $end

$scope module i1 $end
$var wire 1 ' gnd $end
$var wire 1 ( vcc $end
$var wire 1 ) unknown $end
$var tri1 1 * devclrn $end
$var tri1 1 + devpor $end
$var tri1 1 , devoe $end
$var wire 1 - ~QUARTUS_CREATED_GND~I_combout $end
$var wire 1 . ~QUARTUS_CREATED_UNVM~~busy $end
$var wire 1 / Count~output_o $end
$var wire 1 0 Special~output_o $end
$var wire 1 1 Hold~input_o $end
$var wire 1 2 Start~input_o $end
$var wire 1 3 inst5~1_combout $end
$var wire 1 4 S~input_o $end
$var wire 1 5 R~input_o $end
$var wire 1 6 inst3~combout $end
$var wire 1 7 inst5~3_combout $end
$var wire 1 8 inst5~0_combout $end
$var wire 1 9 inst5~_emulated_q $end
$var wire 1 : inst5~2_combout $end
$var wire 1 ; inst~0_combout $end
$upscope $end
$upscope $end
$enddefinitions $end
#0
$dumpvars
0!
0"
0#
0$
0%
0&
0'
1(
x)
1*
1+
1,
0-
z.
0/
00
01
02
03
04
05
x6
x7
18
09
0:
0;
$end
#25000
1"
15
17
16
#50000
1#
0"
05
14
06
#75000
1"
15
#100000
1$
0#
0"
05
04
12
07
#125000
1"
15
17
16
#150000
1#
0"
05
14
06
#175000
1"
15
#200000
1!
0$
0#
0"
05
04
02
11
07
13
1;
1:
1/
10
17
1&
1%
#225000
1"
15
07
0;
16
00
0&
#250000
1#
0"
05
14
06
1;
10
1&
#275000
1"
15
0;
00
0&
#300000
1$
0#
0"
05
04
12
17
08
1;
10
1&
#325000
1"
15
07
0;
16
00
0&
#350000
1#
0"
05
14
06
1;
10
1&
#375000
1"
15
0;
00
0&
#400000
0!
0$
0#
0"
05
04
02
01
17
18
03
0:
0/
07
0%
#425000
1"
15
17
16
#450000
1#
0"
05
14
06
#475000
1"
15
#500000
1$
0#
0"
05
04
12
07
#525000
1"
15
17
16
#550000
1#
0"
05
14
06
#575000
1"
15
#600000
1!
0$
0#
0"
05
04
02
11
07
13
1;
1:
1/
10
17
1&
1%
#625000
1"
15
07
0;
16
00
0&
#650000
1#
0"
05
14
06
1;
10
1&
#675000
1"
15
0;
00
0&
#700000
1$
0#
0"
05
04
12
17
08
1;
10
1&
#725000
1"
15
07
0;
16
00
0&
#750000
1#
0"
05
14
06
1;
10
1&
#775000
1"
15
0;
00
0&
#800000
0!
0$
0#
0"
05
04
02
01
17
18
03
0:
0/
07
0%
#825000
1"
15
17
16
#850000
1#
0"
05
14
06
#875000
1"
15
#900000
1$
0#
0"
05
04
12
07
#925000
1"
15
17
16
#950000
1#
0"
05
14
06
#975000
1"
15
#1000000
1!
0$
0#
0"
05
04
02
11
07
13
1;
1:
1/
10
17
1&
1%
#1025000
1"
15
07
0;
16
00
0&
#1050000
1#
0"
05
14
06
1;
10
1&
#1075000
1"
15
0;
00
0&
#1100000
1$
0#
0"
05
04
12
17
08
1;
10
1&
#1125000
1"
15
07
0;
16
00
0&
#1150000
1#
0"
05
14
06
1;
10
1&
#1175000
1"
15
0;
00
0&
