seventh/Part2/simulation/qsim/LAB6_Part2.msim.vcd
$comment
	File created using the following command:
		vcd file LAB6_Part2.msim.vcd -direction
$end
$date
	Fri Jul 23 15:31:58 2021
$end
$version
	ModelSim Version 10.5b
$end
$timescale
	1ps
$end

$scope module lab6_part2_vhd_vec_tst $end
$var wire 1 ! Cin $end
$var wire 1 " CLK $end
$var wire 1 # Cout $end
$var wire 1 $ DIR [3] $end
$var wire 1 % DIR [2] $end
$var wire 1 & DIR [1] $end
$var wire 1 ' DIR [0] $end
$var wire 1 ( INPUT [3] $end
$var wire 1 ) INPUT [2] $end
$var wire 1 * INPUT [1] $end
$var wire 1 + INPUT [0] $end
$var wire 1 , IR [2] $end
$var wire 1 - IR [1] $end
$var wire 1 . IR [0] $end
$var wire 1 / MemCLK $end
$var wire 1 0 OUTPUT [3] $end
$var wire 1 1 OUTPUT [2] $end
$var wire 1 2 OUTPUT [1] $end
$var wire 1 3 OUTPUT [0] $end
$var wire 1 4 PC [3] $end
$var wire 1 5 PC [2] $end
$var wire 1 6 PC [1] $end
$var wire 1 7 PC [0] $end
$var wire 1 8 REGA [3] $end
$var wire 1 9 REGA [2] $end
$var wire 1 : REGA [1] $end
$var wire 1 ; REGA [0] $end
$var wire 1 < REGB [3] $end
$var wire 1 = REGB [2] $end
$var wire 1 > REGB [1] $end
$var wire 1 ? REGB [0] $end
$var wire 1 @ reset $end

$scope module i1 $end
$var wire 1 A gnd $end
$var wire 1 B vcc $end
$var wire 1 C unknown $end
$var wire 1 D devoe $end
$var wire 1 E devclrn $end
$var wire 1 F devpor $end
$var wire 1 G ww_devoe $end
$var wire 1 H ww_devclrn $end
$var wire 1 I ww_devpor $end
$var wire 1 J ww_Cout $end
$var wire 1 K ww_Cin $end
$var wire 1 L ww_reset $end
$var wire 1 M ww_CLK $end
$var wire 1 N ww_MemCLK $end
$var wire 1 O ww_INPUT [3] $end
$var wire 1 P ww_INPUT [2] $end
$var wire 1 Q ww_INPUT [1] $end
$var wire 1 R ww_INPUT [0] $end
$var wire 1 S ww_PC [3] $end
$var wire 1 T ww_PC [2] $end
$var wire 1 U ww_PC [1] $end
$var wire 1 V ww_PC [0] $end
$var wire 1 W ww_IR [2] $end
$var wire 1 X ww_IR [1] $end
$var wire 1 Y ww_IR [0] $end
$var wire 1 Z ww_DIR [3] $end
$var wire 1 [ ww_DIR [2] $end
$var wire 1 \ ww_DIR [1] $end
$var wire 1 ] ww_DIR [0] $end
$var wire 1 ^ ww_OUTPUT [3] $end
$var wire 1 _ ww_OUTPUT [2] $end
$var wire 1 ` ww_OUTPUT [1] $end
$var wire 1 a ww_OUTPUT [0] $end
$var wire 1 b ww_REGA [3] $end
$var wire 1 c ww_REGA [2] $end
$var wire 1 d ww_REGA [1] $end
$var wire 1 e ww_REGA [0] $end
$var wire 1 f ww_REGB [3] $end
$var wire 1 g ww_REGB [2] $end
$var wire 1 h ww_REGB [1] $end
$var wire 1 i ww_REGB [0] $end
$var wire 1 j \inst7|altsyncram_component|auto_generated|ram_block1a8_PORTAADDR_bus\ [3] $end
$var wire 1 k \inst7|altsyncram_component|auto_generated|ram_block1a8_PORTAADDR_bus\ [2] $end
$var wire 1 l \inst7|altsyncram_component|auto_generated|ram_block1a8_PORTAADDR_bus\ [1] $end
$var wire 1 m \inst7|altsyncram_component|auto_generated|ram_block1a8_PORTAADDR_bus\ [0] $end
$var wire 1 n \inst7|altsyncram_component|auto_generated|ram_block1a8_PORTADATAOUT_bus\ [19] $end
$var wire 1 o \inst7|altsyncram_component|auto_generated|ram_block1a8_PORTADATAOUT_bus\ [18] $end
$var wire 1 p \inst7|altsyncram_component|auto_generated|ram_block1a8_PORTADATAOUT_bus\ [17] $end
$var wire 1 q \inst7|altsyncram_component|auto_generated|ram_block1a8_PORTADATAOUT_bus\ [16] $end
$var wire 1 r \inst7|altsyncram_component|auto_generated|ram_block1a8_PORTADATAOUT_bus\ [15] $end
$var wire 1 s \inst7|altsyncram_component|auto_generated|ram_block1a8_PORTADATAOUT_bus\ [14] $end
$var wire 1 t \inst7|altsyncram_component|auto_generated|ram_block1a8_PORTADATAOUT_bus\ [13] $end
$var wire 1 u \inst7|altsyncram_component|auto_generated|ram_block1a8_PORTADATAOUT_bus\ [12] $end
$var wire 1 v \inst7|altsyncram_component|auto_generated|ram_block1a8_PORTADATAOUT_bus\ [11] $end
$var wire 1 w \inst7|altsyncram_component|auto_generated|ram_block1a8_PORTADATAOUT_bus\ [10] $end
$var wire 1 x \inst7|altsyncram_component|auto_generated|ram_block1a8_PORTADATAOUT_bus\ [9] $end
$var wire 1 y \inst7|altsyncram_component|auto_generated|ram_block1a8_PORTADATAOUT_bus\ [8] $end
$var wire 1 z \inst7|altsyncram_component|auto_generated|ram_block1a8_PORTADATAOUT_bus\ [7] $end
$var wire 1 { \inst7|altsyncram_component|auto_generated|ram_block1a8_PORTADATAOUT_bus\ [6] $end
$var wire 1 | \inst7|altsyncram_component|auto_generated|ram_block1a8_PORTADATAOUT_bus\ [5] $end
$var wire 1 } \inst7|altsyncram_component|auto_generated|ram_block1a8_PORTADATAOUT_bus\ [4] $end
$var wire 1 ~ \inst7|altsyncram_component|auto_generated|ram_block1a8_PORTADATAOUT_bus\ [3] $end
$var wire 1 !! \inst7|altsyncram_component|auto_generated|ram_block1a8_PORTADATAOUT_bus\ [2] $end
$var wire 1 "! \inst7|altsyncram_component|auto_generated|ram_block1a8_PORTADATAOUT_bus\ [1] $end
$var wire 1 #! \inst7|altsyncram_component|auto_generated|ram_block1a8_PORTADATAOUT_bus\ [0] $end
$var wire 1 $! \~QUARTUS_CREATED_GND~I_combout\ $end
$var wire 1 %! \Cin~input_o\ $end
$var wire 1 &! \MemCLK~input_o\ $end
$var wire 1 '! \inst11~0_combout\ $end
$var wire 1 (! \reset~input_o\ $end
$var wire 1 )! \inst11~q\ $end
$var wire 1 *! \MemCLK~inputCLKENA0_outclk\ $end
$var wire 1 +! \inst32|sub|75~0_combout\ $end
$var wire 1 ,! \inst32|sub|9~q\ $end
$var wire 1 -! \inst33~q\ $end
$var wire 1 .! \inst32|sub|106~0_combout\ $end
$var wire 1 /! \inst7|altsyncram_component|auto_generated|ram_block1a11\ $end
$var wire 1 0! \inst32|sub|109~0_combout\ $end
$var wire 1 1! \inst32|sub|110~q\ $end
$var wire 1 2! \inst7|altsyncram_component|auto_generated|ram_block1a10\ $end
$var wire 1 3! \inst32|sub|102~0_combout\ $end
$var wire 1 4! \inst32|sub|99~q\ $end
$var wire 1 5! \inst7|altsyncram_component|auto_generated|ram_block1a9\ $end
$var wire 1 6! \inst32|sub|92~0_combout\ $end
$var wire 1 7! \inst32|sub|87~q\ $end
$var wire 1 8! \inst7|altsyncram_component|auto_generated|ram_block1a8~portadataout\ $end
$var wire 1 9! \inst15|24~0_combout\ $end
$var wire 1 :! \inst2~q\ $end
$var wire 1 ;! \inst51|Q0o~combout\ $end
$var wire 1 <! \inst31~q\ $end
$var wire 1 =! \inst15|23~0_combout\ $end
$var wire 1 >! \inst1~q\ $end
$var wire 1 ?! \inst51|D3~1_combout\ $end
$var wire 1 @! \inst33~DUPLICATE_q\ $end
$var wire 1 A! \inst15|22~0_combout\ $end
$var wire 1 B! \inst16~q\ $end
$var wire 1 C! \inst51|D2~0_combout\ $end
$var wire 1 D! \inst51|D5~0_combout\ $end
$var wire 1 E! \inst51|D3~0_combout\ $end
$var wire 1 F! \inst51|D4~0_combout\ $end
$var wire 1 G! \inst51|D7~1_combout\ $end
$var wire 1 H! \inst8|sub|81~1_combout\ $end
$var wire 1 I! \inst8|sub|81~0_combout\ $end
$var wire 1 J! \inst8|sub|81~2_combout\ $end
$var wire 1 K! \inst17|sub|82~0_combout\ $end
$var wire 1 L! \inst47|sub|81~1_combout\ $end
$var wire 1 M! \inst12|10~0_combout\ $end
$var wire 1 N! \inst17|sub|106~0_combout\ $end
$var wire 1 O! \inst17|sub|100~0_combout\ $end
$var wire 1 P! \inst8|sub|81~3_combout\ $end
$var wire 1 Q! \inst12|9~0_combout\ $end
$var wire 1 R! \inst99|9~0_combout\ $end
$var wire 1 S! \inst51|D7~0_combout\ $end
$var wire 1 T! \inst17|sub|80~0_combout\ $end
$var wire 1 U! \inst17|sub|80~combout\ $end
$var wire 1 V! \inst47|sub|81~0_combout\ $end
$var wire 1 W! \inst99|10~0_combout\ $end
$var wire 1 X! \inst17|sub|78~combout\ $end
$var wire 1 Y! \inst9|sub|81~1_combout\ $end
$var wire 1 Z! \inst9|sub|81~0_combout\ $end
$var wire 1 [! \inst13|9~0_combout\ $end
$var wire 1 \! \inst69|9~0_combout\ $end
$var wire 1 ]! \inst10|sub|81~0_combout\ $end
$var wire 1 ^! \inst10|sub|81~1_combout\ $end
$var wire 1 _! \inst13|10~0_combout\ $end
$var wire 1 `! \inst69|10~0_combout\ $end
$var wire 1 a! \inst17|sub|105~0_combout\ $end
$var wire 1 b! \inst17|sub|107~0_combout\ $end
$var wire 1 c! inst94 [3] $end
$var wire 1 d! inst94 [2] $end
$var wire 1 e! inst94 [1] $end
$var wire 1 f! inst94 [0] $end
$var wire 1 g! inst4 [3] $end
$var wire 1 h! inst4 [2] $end
$var wire 1 i! inst4 [1] $end
$var wire 1 j! inst4 [0] $end
$var wire 1 k! inst19 [3] $end
$var wire 1 l! inst19 [2] $end
$var wire 1 m! inst19 [1] $end
$var wire 1 n! inst19 [0] $end
$var wire 1 o! ALT_INV_inst94 [3] $end
$var wire 1 p! ALT_INV_inst94 [2] $end
$var wire 1 q! ALT_INV_inst94 [1] $end
$var wire 1 r! ALT_INV_inst94 [0] $end
$var wire 1 s! ALT_INV_inst4 [3] $end
$var wire 1 t! ALT_INV_inst4 [2] $end
$var wire 1 u! ALT_INV_inst4 [1] $end
$var wire 1 v! ALT_INV_inst4 [0] $end
$var wire 1 w! \inst9|sub|ALT_INV_81~1_combout\ $end
$var wire 1 x! \inst7|altsyncram_component|auto_generated|ALT_INV_ram_block1a9\ $end
$var wire 1 y! \inst7|altsyncram_component|auto_generated|ALT_INV_ram_block1a10\ $end
$var wire 1 z! \inst7|altsyncram_component|auto_generated|ALT_INV_ram_block1a11\ $end
$var wire 1 {! \inst7|altsyncram_component|auto_generated|ALT_INV_ram_block1a8~portadataout\ $end
$var wire 1 |! \ALT_INV_inst33~DUPLICATE_q\ $end
$var wire 1 }! \ALT_INV_reset~input_o\ $end
$var wire 1 ~! \ALT_INV_Cin~input_o\ $end
$var wire 1 !" \inst51|ALT_INV_D3~1_combout\ $end
$var wire 1 "" \inst32|sub|ALT_INV_106~0_combout\ $end
$var wire 1 #" \inst51|ALT_INV_D3~0_combout\ $end
$var wire 1 $" \inst51|ALT_INV_D4~0_combout\ $end
$var wire 1 %" \inst51|ALT_INV_D2~0_combout\ $end
$var wire 1 &" \inst10|sub|ALT_INV_81~1_combout\ $end
$var wire 1 '" \inst10|sub|ALT_INV_81~0_combout\ $end
$var wire 1 (" \inst9|sub|ALT_INV_81~0_combout\ $end
$var wire 1 )" \inst17|sub|ALT_INV_78~combout\ $end
$var wire 1 *" \inst47|sub|ALT_INV_81~1_combout\ $end
$var wire 1 +" \inst47|sub|ALT_INV_81~0_combout\ $end
$var wire 1 ," \inst51|ALT_INV_D7~1_combout\ $end
$var wire 1 -" \inst51|ALT_INV_D7~0_combout\ $end
$var wire 1 ." \inst17|sub|ALT_INV_80~combout\ $end
$var wire 1 /" \inst17|sub|ALT_INV_80~0_combout\ $end
$var wire 1 0" \inst51|ALT_INV_D5~0_combout\ $end
$var wire 1 1" \inst8|sub|ALT_INV_81~3_combout\ $end
$var wire 1 2" \inst8|sub|ALT_INV_81~2_combout\ $end
$var wire 1 3" \inst8|sub|ALT_INV_81~1_combout\ $end
$var wire 1 4" \inst17|sub|ALT_INV_82~0_combout\ $end
$var wire 1 5" \inst8|sub|ALT_INV_81~0_combout\ $end
$var wire 1 6" \inst17|sub|ALT_INV_106~0_combout\ $end
$var wire 1 7" ALT_INV_inst19 [2] $end
$var wire 1 8" \inst17|sub|ALT_INV_100~0_combout\ $end
$var wire 1 9" \ALT_INV_inst31~q\ $end
$var wire 1 :" \ALT_INV_inst33~q\ $end
$var wire 1 ;" \ALT_INV_inst2~q\ $end
$var wire 1 <" \ALT_INV_inst1~q\ $end
$var wire 1 =" \ALT_INV_inst16~q\ $end
$var wire 1 >" \inst32|sub|ALT_INV_9~q\ $end
$var wire 1 ?" \inst32|sub|ALT_INV_87~q\ $end
$var wire 1 @" \inst32|sub|ALT_INV_99~q\ $end
$var wire 1 A" \inst32|sub|ALT_INV_110~q\ $end
$var wire 1 B" \ALT_INV_inst11~q\ $end
$var wire 1 C" \inst17|sub|ALT_INV_105~0_combout\ $end
$upscope $end
$upscope $end
$enddefinitions $end
#0
$dumpvars
0!
0"
0#
0/
1@
0A
1B
xC
1D
1E
1F
1G
1H
1I
0J
0K
1L
0M
0N
x$!
0%!
0&!
1'!
1(!
0)!
0*!
0+!
0,!
0-!
0.!
0/!
00!
01!
02!
03!
04!
05!
06!
07!
08!
09!
0:!
1;!
0<!
0=!
0>!
0?!
0@!
0A!
0B!
0C!
0D!
0E!
0F!
1G!
0H!
0I!
0J!
0K!
0L!
0M!
0N!
0O!
0P!
0Q!
0R!
0S!
0T!
0U!
0V!
0W!
0X!
0Y!
0Z!
0[!
0\!
0]!
0^!
0_!
0`!
0a!
0b!
1w!
1x!
1y!
1z!
1{!
1|!
0}!
1~!
1!"
1""
1#"
1$"
1%"
1&"
1'"
1("
1)"
1*"
1+"
0,"
1-"
1."
1/"
10"
11"
12"
13"
14"
15"
16"
18"
19"
1:"
1;"
1<"
1="
1>"
1?"
1@"
1A"
1B"
1C"
0O
0P
0Q
0R
0S
0T
0U
0V
0W
0X
0Y
0Z
0[
0\
0]
0^
0_
0`
0a
0b
0c
0d
0e
0f
0g
0h
0i
0n
0o
0p
0q
0r
0s
0t
0u
0v
0w
0x
0y
0z
0{
0|
0}
0~
0!!
0"!
0#!
0c!
0d!
0e!
0f!
0g!
0h!
0i!
0j!
xk!
1l!
xm!
xn!
1o!
1p!
1q!
1r!
1s!
1t!
1u!
1v!
07"
0j
0k
0l
0m
0$
0%
0&
0'
0(
0)
0*
0+
0,
0-
0.
00
01
02
03
04
05
06
07
08
09
0:
0;
0<
0=
0>
0?
$end
#10000
1/
1N
1&!
1*!
#10001
1"!
15!
0x!
1=!
1Q
1*
1\
1&
#20000
0/
0N
0&!
0*!
#30000
1/
1N
1&!
1*!
#40000
0/
0N
0&!
0*!
#50000
1/
1N
1&!
1*!
#60000
0/
0N
0&!
0*!
#70000
1/
1N
1&!
1*!
#80000
0/
0@
0N
0L
0(!
0&!
0*!
1}!
#90000
1/
1N
1&!
1*!
1)!
0B"
1<!
1>!
0'!
0<"
09"
1M
1+!
0;!
1?!
0!"
1"
1X
1-
#100000
0/
0N
0&!
0*!
#110000
1/
1N
1&!
1*!
0)!
1B"
1'!
0M
0"
#120000
0/
0N
0&!
0*!
#130000
1/
1N
1&!
1*!
1)!
0B"
1,!
1-!
0<!
1@!
0'!
0|!
19"
0:"
0>"
1m
1M
1C!
0+!
16!
0?!
1!"
0%"
1"
1V
1\!
17
#140000
0/
0N
0&!
0*!
#150000
1/
1N
1&!
1*!
0)!
1B"
1'!
0M
0"
#150001
0"!
1#!
05!
18!
0{!
1x!
0\!
1`!
1R
0Q
1+
0*
#160000
0/
0N
0&!
0*!
#170000
1/
1N
1&!
1*!
1)!
0B"
0,!
0-!
17!
0@!
1f!
0'!
0r!
1|!
0?"
1:"
1>"
0m
1l
1M
0C!
19!
1;!
0=!
1^!
0&"
1%"
1"
1e
1U
0V
1;
07
16
1a
0\
1]
13
1'
0&
#180000
0/
0N
0&!
0*!
#190000
1/
1N
1&!
1*!
0)!
1B"
1'!
0M
0"
#200000
0/
0N
0&!
0*!
#210000
1/
1N
1&!
1*!
1)!
0B"
1:!
1<!
0>!
0'!
1<"
09"
0;"
1M
1+!
0;!
1E!
1F!
0$"
0#"
1"
0X
1Y
1_!
1.
0-
#220000
0/
0N
0&!
0*!
#230000
1/
1N
1&!
1*!
0)!
1B"
1'!
0M
0"
#240000
0/
0N
0&!
0*!
#250000
1/
1N
1&!
1*!
1)!
0B"
1,!
0<!
1j!
0'!
0v!
19"
0>"
1m
1M
1;!
0E!
0F!
1X!
0)"
1$"
1#"
1"
1i
1V
1?
17
#260000
0/
0N
0&!
0*!
#270000
1/
1N
1&!
1*!
0)!
1B"
1'!
0M
0"
#270001
0#!
08!
1{!
09!
0R
0+
0]
0'
#280000
0/
0N
0&!
0*!
#290000
1/
1N
1&!
1*!
1)!
0B"
0:!
1<!
0'!
09"
1;"
1M
0+!
13!
06!
0;!
1D!
1I!
1S!
0-"
05"
00"
1"
0Y
0^!
1Y!
0.
0w!
1&"
0`!
1Z!
1\!
0("
0a
03
1`
12
#300000
0/
0N
0&!
0*!
#310000
1/
1N
1&!
1*!
0)!
1B"
1'!
0M
0"
#320000
0/
0N
0&!
0*!
#330000
1/
1N
1&!
1*!
1)!
0B"
0,!
14!
07!
0<!
1e!
0f!
0'!
1r!
0q!
19"
1?"
0@"
1>"
0m
0l
1k
1M
1;!
0D!
0I!
0S!
1^!
0&"
1-"
15"
10"
1"
0e
1d
0U
1T
0V
0^!
0;
1:
07
06
15
1&"
1a
13
0a
03
#340000
0/
0N
0&!
0*!
#350000
1/
1N
1&!
1*!
0)!
1B"
1'!
0M
0"
#350001
1!!
1#!
12!
18!
0{!
0y!
1A!
19!
1R
1P
1+
1)
1]
1[
1'
1%
#360000
0/
0N
0&!
0*!
#370000
1/
1N
1&!
1*!
1)!
0B"
1:!
1<!
1B!
0'!
0="
09"
0;"
1M
1+!
0;!
1D!
0G!
1,"
00"
1"
1W
1Y
1V!
0Y!
1.
1,
1w!
0+"
1L!
1W!
0Z!
0\!
1("
0*"
0`
1_
02
11
#380000
0/
0N
0&!
0*!
#390000
1/
1N
1&!
1*!
0)!
1B"
1'!
0M
0"
#400000
0/
0N
0&!
0*!
#410000
1/
1N
1&!
1*!
1)!
0B"
1,!
0<!
1d!
0e!
0'!
1q!
0p!
19"
0>"
1m
1M
1;!
0D!
1G!
0l!
1T!
0V!
0X!
1)"
1+"
0/"
17"
0,"
10"
1"
0d
1c
1V
1V!
1U!
0:
19
17
0."
0+"
#420000
0/
0N
0&!
0*!
#430000
1/
1N
1&!
1*!
0)!
1B"
1'!
0M
0"
#430001
0!!
1"!
02!
15!
0x!
1y!
0A!
1=!
1Q
0P
1*
0)
1\
0[
1&
0%
#440000
0/
0N
0&!
0*!
#450000
1/
1N
1&!
1*!
1)!
0B"
1<!
1>!
0B!
0'!
1="
0<"
09"
1M
0+!
16!
0;!
1?!
0!"
1"
0W
1X
1;!
1-
0,
#460000
0/
0N
0&!
0*!
#470000
1/
1N
1&!
1*!
0)!
1B"
1'!
0M
0"
#480000
0/
0N
0&!
0*!
#490000
1/
1N
1&!
1*!
1)!
0B"
0,!
1-!
17!
1@!
0'!
0|!
0?"
0:"
1>"
0m
1l
1M
1+!
03!
0?!
1!"
1"
1U
0V
0;!
07
16
#500000
0/
0N
0&!
0*!
#510000
1/
1N
1&!
1*!
0)!
1B"
1'!
0M
0"
#520000
0/
0N
0&!
0*!
#530000
1/
1N
1&!
1*!
1)!
0B"
1,!
0-!
04!
0<!
0@!
0'!
1|!
19"
1@"
1:"
0>"
1m
0k
1M
1;!
1"
0T
1V
17
05
#540000
0/
0N
0&!
0*!
#550000
1/
1N
1&!
1*!
0)!
1B"
1'!
0M
0"
#550001
0"!
0#!
05!
08!
1{!
1x!
0=!
09!
0R
0Q
0+
0*
0]
0\
0'
0&
#560000
0/
0N
0&!
0*!
#570000
1/
1N
1&!
1*!
1)!
0B"
0:!
1<!
0>!
0'!
1<"
09"
1;"
1M
0+!
13!
06!
0;!
1D!
1I!
1S!
0-"
05"
00"
1"
0X
0Y
1^!
0.
0-
0&"
1`!
1a
13
#580000
0/
0N
0&!
0*!
#590000
1/
1N
1&!
1*!
0)!
1B"
1'!
0M
0"
#600000
0/
0N
0&!
0*!
#610000
1/
1N
1&!
1*!
1)!
0B"
0,!
14!
07!
0<!
1f!
0'!
0r!
19"
1?"
0@"
1>"
0m
0l
1k
1M
1;!
0D!
0I!
0S!
1X!
0^!
1&"
0)"
1-"
15"
10"
1"
1e
0U
1T
0V
1^!
1;
07
06
15
0&"
0a
03
1a
13
#620000
0/
0N
0&!
0*!
#630000
1/
1N
1&!
1*!
0)!
1B"
1'!
0M
0"
#630001
1!!
1#!
12!
18!
0{!
0y!
1A!
19!
1R
1P
1+
1)
1]
1[
1'
1%
#640000
0/
0N
0&!
0*!
#650000
1/
1N
1&!
1*!
1)!
0B"
1:!
1<!
1B!
0'!
0="
09"
0;"
1M
1+!
0;!
1D!
0G!
1J!
02"
1,"
00"
1"
1W
1Y
0^!
0V!
1Y!
1P!
1.
1,
01"
0w!
1+"
1&"
0`!
0L!
0W!
1Z!
1\!
1R!
0("
1*"
1^
0a
03
10
1`
0_
12
01
#660000
0/
0N
0&!
0*!
#670000
1/
1N
1&!
1*!
0)!
1B"
1'!
0M
0"
#680000
0/
0N
0&!
0*!
#690000
1/
1N
1&!
1*!
1)!
0B"
1,!
0<!
1c!
0d!
1e!
0f!
0'!
1r!
0q!
1p!
0o!
19"
0>"
1m
1M
1;!
0D!
1G!
1H!
1K!
0J!
1l!
0T!
1V!
0Y!
0+"
1/"
07"
12"
04"
03"
0,"
10"
1"
0e
1d
0c
1b
1V
1w!
1Y!
0V!
0U!
0;
1:
09
18
17
1."
1+"
0w!
#700000
0/
0N
0&!
0*!
#710000
1/
1N
1&!
1*!
0)!
1B"
1'!
0M
0"
#710001
0!!
1"!
02!
15!
0x!
1y!
0A!
1=!
1Q
0P
1*
0)
1\
0[
1&
0%
#720000
0/
0N
0&!
0*!
#730000
1/
1N
1&!
1*!
1)!
0B"
1<!
1>!
0B!
0'!
1="
0<"
09"
1M
0+!
16!
0;!
1?!
0!"
1"
0W
1X
1;!
1-
0,
#740000
0/
0N
0&!
0*!
#750000
1/
1N
1&!
1*!
0)!
1B"
1'!
0M
0"
#760000
0/
0N
0&!
0*!
#770000
1/
1N
1&!
1*!
1)!
0B"
0,!
1-!
17!
1@!
0'!
0|!
0?"
0:"
1>"
0m
1l
1M
1+!
03!
0?!
1!"
1"
1U
0V
0;!
07
16
#780000
0/
0N
0&!
0*!
#790000
1/
1N
1&!
1*!
0)!
1B"
1'!
0M
0"
#800000
0/
0N
0&!
0*!
#810000
1/
1N
1&!
1*!
1)!
0B"
1,!
0-!
04!
0<!
0@!
0'!
1|!
19"
1@"
1:"
0>"
1m
0k
1M
1;!
1"
0T
1V
17
05
#820000
0/
0N
0&!
0*!
#830000
1/
1N
1&!
1*!
0)!
1B"
1'!
0M
0"
#830001
0"!
0#!
05!
08!
1{!
1x!
0=!
09!
0R
0Q
0+
0*
0]
0\
0'
0&
#840000
0/
0N
0&!
0*!
#850000
1/
1N
1&!
1*!
1)!
0B"
0:!
1<!
0>!
0'!
1<"
09"
1;"
1M
0+!
13!
06!
0;!
1D!
0H!
1I!
1S!
0-"
05"
13"
00"
1"
0X
0Y
1^!
0.
0-
0&"
1`!
1a
13
#860000
0/
0N
0&!
0*!
#870000
1/
1N
1&!
1*!
0)!
1B"
1'!
0M
0"
#880000
0/
0N
0&!
0*!
#890000
1/
1N
1&!
1*!
1)!
0B"
0,!
14!
07!
0<!
1f!
0'!
0r!
19"
1?"
0@"
1>"
0m
0l
1k
1M
1;!
0D!
1H!
0I!
0S!
1U!
0X!
0^!
1a!
0C"
1&"
1)"
0."
1-"
15"
03"
10"
1"
1e
0U
1T
0V
1^!
1;
07
06
15
0&"
0a
03
1a
13
#900000
0/
0N
0&!
0*!
#910000
1/
1N
1&!
1*!
0)!
1B"
1'!
0M
0"
#910001
1!!
1#!
12!
18!
0{!
0y!
1A!
19!
1R
1P
1+
1)
1]
1[
1'
1%
#920000
0/
0N
0&!
0*!
#930000
1/
1N
1&!
1*!
1)!
0B"
1:!
1<!
1B!
0'!
0="
09"
0;"
1M
1+!
0;!
1D!
0G!
0H!
13"
1,"
00"
1"
1W
1Y
0^!
1V!
0P!
1.
1,
11"
0+"
1&"
0`!
1L!
1W!
0R!
0*"
0^
0a
03
00
1_
11
#940000
0/
0N
0&!
0*!
#950000
1/
1N
1&!
1*!
0)!
1B"
1'!
0M
0"
#960000
0/
0N
0&!
0*!
#970000
1/
1N
1&!
1*!
1)!
0B"
1,!
0<!
0c!
1d!
0f!
0'!
1r!
0p!
1o!
19"
0>"
1m
1M
1;!
0D!
1G!
0K!
0l!
1T!
0U!
1X!
0a!
0Y!
1C"
0)"
1."
0/"
17"
14"
0,"
10"
1"
0e
1c
0b
1V
1w!
1U!
1Y!
0;
19
08
17
0w!
0."
#980000
0/
0N
0&!
0*!
#990000
1/
1N
1&!
1*!
0)!
1B"
1'!
0M
0"
#990001
0!!
1"!
02!
15!
0x!
1y!
0A!
1=!
1Q
0P
1*
0)
1\
0[
1&
0%
#1000000
0/
0N
0&!
0*!
#1010000
1/
1N
1&!
1*!
1)!
0B"
1<!
1>!
0B!
0'!
1="
0<"
09"
1M
0+!
16!
0;!
1?!
0!"
1"
0W
1X
1;!
1-
0,
#1020000
0/
0N
0&!
0*!
#1030000
1/
1N
1&!
1*!
0)!
1B"
1'!
0M
0"
#1040000
0/
0N
0&!
0*!
#1050000
1/
1N
1&!
1*!
1)!
0B"
0,!
1-!
17!
1@!
0'!
0|!
0?"
0:"
1>"
0m
1l
1M
1+!
03!
0?!
1!"
1"
1U
0V
0;!
07
16
#1060000
0/
0N
0&!
0*!
#1070000
1/
1N
1&!
1*!
0)!
1B"
1'!
0M
0"
#1080000
0/
0N
0&!
0*!
#1090000
1/
1N
1&!
1*!
1)!
0B"
1,!
0-!
04!
0<!
0@!
0'!
1|!
19"
1@"
1:"
0>"
1m
0k
1M
1;!
1"
0T
1V
17
05
#1100000
0/
0N
0&!
0*!
#1110000
1/
1N
1&!
1*!
0)!
1B"
1'!
0M
0"
#1110001
0"!
0#!
05!
08!
1{!
1x!
0=!
09!
0R
0Q
0+
0*
0]
0\
0'
0&
#1120000
0/
0N
0&!
0*!
#1130000
1/
1N
1&!
1*!
1)!
0B"
0:!
1<!
0>!
0'!
1<"
09"
1;"
1M
0+!
13!
06!
0;!
1D!
1I!
1S!
0-"
05"
00"
1"
0X
0Y
1^!
0.
0-
0&"
1`!
1a
13
#1140000
0/
0N
0&!
0*!
#1150000
1/
1N
1&!
1*!
0)!
1B"
1'!
0M
0"
#1160000
0/
0N
0&!
0*!
#1170000
1/
1N
1&!
1*!
1)!
0B"
0,!
14!
07!
0<!
1f!
0'!
0r!
19"
1?"
0@"
1>"
0m
0l
1k
1M
1;!
0D!
0I!
0S!
1N!
0U!
0X!
0^!
1a!
0C"
1&"
1)"
1."
06"
1-"
15"
10"
1"
1e
0U
1T
0V
1^!
1;
07
06
15
0&"
0a
03
1a
13
#1180000
0/
0N
0&!
0*!
#1190000
1/
1N
1&!
1*!
0)!
1B"
1'!
0M
0"
#1190001
1!!
1#!
12!
18!
0{!
0y!
1A!
19!
1R
1P
1+
1)
1]
1[
1'
1%
#1200000
0/
0N
0&!
0*!
#1210000
1/
1N
1&!
1*!
1)!
0B"
1:!
1<!
1B!
0'!
0="
09"
0;"
1M
1+!
0;!
1D!
0G!
1J!
02"
1,"
00"
1"
1W
1Y
0^!
1P!
1.
1,
01"
1&"
0`!
1R!
1^
0a
03
10
#1220000
0/
0N
0&!
0*!
#1230000
1/
1N
1&!
1*!
0)!
1B"
1'!
0M
0"
#1240000
0/
0N
0&!
0*!
#1250000
1/
1N
1&!
1*!
1)!
0B"
1,!
0<!
1c!
0f!
0'!
1r!
0o!
19"
0>"
1m
1M
1;!
0D!
1G!
0J!
1H!
1K!
1b!
0N!
1U!
1X!
0a!
0Y!
1C"
0)"
0."
16"
04"
03"
12"
0,"
10"
1"
0e
1b
1V
1w!
1Y!
0b!
0;
18
17
0w!
1J
1#
0J
0#
#1260000
0/
0N
0&!
0*!
#1270000
1/
1N
1&!
1*!
0)!
1B"
1'!
0M
0"
#1270001
0!!
1"!
02!
15!
0x!
1y!
0A!
1=!
1Q
0P
1*
0)
1\
0[
1&
0%
#1280000
0/
0N
0&!
0*!
#1290000
1/
1N
1&!
1*!
1)!
0B"
1<!
1>!
0B!
0'!
1="
0<"
09"
1M
0+!
16!
0;!
1?!
0!"
1"
0W
1X
1;!
1-
0,
#1300000
0/
0N
0&!
0*!
#1310000
1/
1N
1&!
1*!
0)!
1B"
1'!
0M
0"
#1320000
0/
0N
0&!
0*!
#1330000
1/
1N
1&!
1*!
1)!
0B"
0,!
1-!
17!
1@!
0'!
0|!
0?"
0:"
1>"
0m
1l
1M
1+!
03!
0?!
1!"
1"
1U
0V
0;!
07
16
#1340000
0/
0N
0&!
0*!
#1350000
1/
1N
1&!
1*!
0)!
1B"
1'!
0M
0"
#1360000
0/
0N
0&!
0*!
#1370000
1/
1N
1&!
1*!
1)!
0B"
1,!
0-!
04!
0<!
0@!
0'!
1|!
19"
1@"
1:"
0>"
1m
0k
1M
1;!
1"
0T
1V
17
05
#1380000
0/
0N
0&!
0*!
#1390000
1/
1N
1&!
1*!
0)!
1B"
1'!
0M
0"
#1390001
0"!
0#!
05!
08!
1{!
1x!
0=!
09!
0R
0Q
0+
0*
0]
0\
0'
0&
#1400000
0/
0N
0&!
0*!
