third/lab2_quiz/simulation/qsim/Lab2_Quiz.msim.vcd
$comment
	File created using the following command:
		vcd file Lab2_Quiz.msim.vcd -direction
$end
$date
	Fri Jun 04 15:04:37 2021
$end
$version
	ModelSim Version 10.5b
$end
$timescale
	1ps
$end

$scope module Lab2_Quiz_vlg_vec_tst $end
$var reg 1 ! A $end
$var reg 1 " B $end
$var reg 1 # C $end
$var wire 1 $ Y $end

$scope module i1 $end
$var wire 1 % gnd $end
$var wire 1 & vcc $end
$var wire 1 ' unknown $end
$var tri1 1 ( devclrn $end
$var tri1 1 ) devpor $end
$var tri1 1 * devoe $end
$var wire 1 + ~QUARTUS_CREATED_GND~I_combout $end
$var wire 1 , ~QUARTUS_CREATED_UNVM~~busy $end
$var wire 1 - Y~output_o $end
$var wire 1 . B~input_o $end
$var wire 1 / A~input_o $end
$var wire 1 0 C~input_o $end
$var wire 1 1 inst|9~0_combout $end
$upscope $end
$upscope $end
$enddefinitions $end
#0
$dumpvars
0!
0"
0#
0$
0%
1&
x'
1(
1)
1*
0+
z,
0-
0.
0/
00
01
$end
#20000
1#
10
#40000
1"
0#
00
1.
#60000
1#
10
11
1-
1$
#80000
1!
0"
0#
00
0.
1/
01
0-
0$
#100000
1#
10
11
1-
1$
#120000
1"
0#
00
1.
01
0-
0$
#140000
1#
10
#160000
0!
0"
0#
00
0.
0/
#180000
1#
10
#200000
1"
0#
00
1.
#220000
1#
10
11
1-
1$
#240000
1!
0"
0#
00
0.
1/
01
0-
0$
#260000
1#
10
11
1-
1$
#280000
1"
0#
00
1.
01
0-
0$
#300000
1#
10
#320000
0!
0"
0#
00
0.
0/
#340000
1#
10
#360000
1"
0#
00
1.
#380000
1#
10
11
1-
1$
#400000
1!
0"
0#
00
0.
1/
01
0-
0$
#420000
1#
10
11
1-
1$
#440000
1"
0#
00
1.
01
0-
0$
#460000
1#
10
#480000
0!
0"
0#
00
0.
0/
#500000
1#
10
#520000
1"
0#
00
1.
#540000
1#
10
11
1-
1$
#560000
1!
0"
0#
00
0.
1/
01
0-
0$
#580000
1#
10
11
1-
1$
#600000
1"
0#
00
1.
01
0-
0$
#620000
1#
10
#640000
0!
0"
0#
00
0.
0/
#660000
1#
10
#680000
1"
0#
00
1.
#700000
1#
10
11
1-
1$
#720000
1!
0"
0#
00
0.
1/
01
0-
0$
#740000
1#
10
11
1-
1$
#760000
1"
0#
00
1.
01
0-
0$
#780000
1#
10
#800000
0!
0"
0#
00
0.
0/
#820000
1#
10
#840000
1"
0#
00
1.
#860000
1#
10
11
1-
1$
#880000
1!
0"
0#
00
0.
1/
01
0-
0$
#900000
1#
10
11
1-
1$
#920000
1"
0#
00
1.
01
0-
0$
#940000
1#
10
#960000
0!
0"
0#
00
0.
0/
#980000
1#
10
#1000000
1"
0#
00
1.
#1020000
1#
10
11
1-
1$
#1040000
1!
0"
0#
00
0.
1/
01
0-
0$
#1060000
1#
10
11
1-
1$
#1080000
1"
0#
00
1.
01
0-
0$
#1100000
1#
10
#1120000
0!
0"
0#
00
0.
0/
#1140000
1#
10
#1160000
1"
0#
00
1.
#1180000
1#
10
11
1-
1$
