second/CompCreation/simulation/qsim/Lab3Counter7seg.msim.vcd
$comment
	File created using the following command:
		vcd file Lab3Counter7seg.msim.vcd -direction
$end
$date
	Thu Jun 10 12:03:32 2021
$end
$version
	ModelSim Version 10.5b
$end
$timescale
	1ps
$end

$scope module Lab3Counter7seg_vlg_vec_tst $end
$var reg 1 ! CLK $end
$var wire 1 " A $end
$var wire 1 # B $end
$var wire 1 $ C $end
$var wire 1 % D $end
$var wire 1 & E $end
$var wire 1 ' F $end
$var wire 1 ( G $end

$scope module i1 $end
$var wire 1 ) gnd $end
$var wire 1 * vcc $end
$var wire 1 + unknown $end
$var tri1 1 , devclrn $end
$var tri1 1 - devpor $end
$var tri1 1 . devoe $end
$var wire 1 / ~QUARTUS_CREATED_GND~I_combout $end
$var wire 1 0 ~QUARTUS_CREATED_UNVM~~busy $end
$var wire 1 1 A~output_o $end
$var wire 1 2 B~output_o $end
$var wire 1 3 C~output_o $end
$var wire 1 4 D~output_o $end
$var wire 1 5 E~output_o $end
$var wire 1 6 F~output_o $end
$var wire 1 7 G~output_o $end
$var wire 1 8 CLK~input_o $end
$var wire 1 9 CLK~inputclkctrl_outclk $end
$var wire 1 : inst2|9~0_combout $end
$var wire 1 ; inst2|9~q $end
$var wire 1 < inst2|10~feeder_combout $end
$var wire 1 = inst2|10~q $end
$var wire 1 > inst|inst~combout $end
$var wire 1 ? inst|inst32~combout $end
$var wire 1 @ inst|inst13~combout $end
$upscope $end
$upscope $end
$enddefinitions $end
#0
$dumpvars
0!
1"
1#
1$
1%
1&
1'
0(
0)
1*
x+
1,
1-
1.
0/
z0
11
12
13
14
15
16
07
08
09
1:
0;
0<
0=
1>
1?
0@
$end
#50000
1!
18
19
1;
17
1@
1(
0?
1<
03
06
0'
0$
#100000
0!
08
09
#150000
1!
18
19
1=
05
0&
1?
0:
13
1$
#200000
0!
08
09
#250000
1!
18
19
0;
07
0(
0>
0<
01
04
0%
0"
#300000
0!
08
09
#350000
1!
18
19
0=
15
0@
1&
1>
1:
11
14
16
1'
1%
1"
#400000
0!
08
09
#450000
1!
18
19
1;
17
1@
1(
0?
1<
03
06
0'
0$
#500000
0!
08
09
#550000
1!
18
19
1=
05
0&
1?
0:
13
1$
#600000
0!
08
09
#650000
1!
18
19
0;
07
0(
0>
0<
01
04
0%
0"
#700000
0!
08
09
#750000
1!
18
19
0=
15
0@
1&
1>
1:
11
14
16
1'
1%
1"
#800000
0!
08
09
#850000
1!
18
19
1;
17
1@
1(
0?
1<
03
06
0'
0$
#900000
0!
08
09
#950000
1!
18
19
1=
05
0&
1?
0:
13
1$
#1000000
0!
08
09
#1050000
1!
18
19
0;
07
0(
0>
0<
01
04
0%
0"
#1100000
0!
08
09
#1150000
1!
18
19
0=
15
0@
1&
1>
1:
11
14
16
1'
1%
1"
