fourth/Lab3 quiz/simulation/qsim/Lab3_Quiz.msim.vcd
$comment
	File created using the following command:
		vcd file Lab3_Quiz.msim.vcd -direction
$end
$date
	Fri Jun 11 14:56:10 2021
$end
$version
	ModelSim Version 10.5b
$end
$timescale
	1ps
$end

$scope module Lab3_Quiz_vlg_vec_tst $end
$var reg 1 ! R $end
$var reg 1 " Reset $end
$var reg 1 # S $end
$var wire 1 $ Q0 $end
$var wire 1 % Q1 $end

$scope module i1 $end
$var wire 1 & gnd $end
$var wire 1 ' vcc $end
$var wire 1 ( unknown $end
$var tri1 1 ) devclrn $end
$var tri1 1 * devpor $end
$var tri1 1 + devoe $end
$var wire 1 , ~QUARTUS_CREATED_GND~I_combout $end
$var wire 1 - ~QUARTUS_CREATED_UNVM~~busy $end
$var wire 1 . Q1~output_o $end
$var wire 1 / Q0~output_o $end
$var wire 1 0 R~input_o $end
$var wire 1 1 S~input_o $end
$var wire 1 2 inst2~combout $end
$var wire 1 3 inst2~clkctrl_outclk $end
$var wire 1 4 inst~feeder_combout $end
$var wire 1 5 Reset~input_o $end
$var wire 1 6 Reset~inputclkctrl_outclk $end
$var wire 1 7 inst~q $end
$var wire 1 8 inst3~0_combout $end
$var wire 1 9 inst3~q $end
$upscope $end
$upscope $end
$enddefinitions $end
#0
$dumpvars
0!
0"
0#
0$
0%
0&
1'
x(
1)
1*
1+
0,
z-
0.
0/
00
01
x2
x3
04
05
06
07
18
09
$end
#20000
1"
15
16
#25000
1!
10
02
03
#50000
1#
0!
00
11
12
13
19
1.
1%
14
#75000
1!
10
02
03
#100000
0#
0!
00
01
#125000
1!
10
#150000
1#
0!
00
11
12
13
17
1/
1$
08
#175000
1!
10
02
03
#200000
0#
0!
00
01
#225000
1!
10
#250000
1#
0!
00
11
12
13
09
0.
0%
04
#275000
1!
10
02
03
#300000
0#
0!
00
01
#325000
1!
10
#350000
1#
0!
00
11
12
13
07
0/
0$
18
#375000
1!
10
02
03
#400000
0#
0!
00
01
#425000
1!
10
#450000
1#
0!
00
11
12
13
19
1.
1%
14
#475000
1!
10
02
03
#500000
0#
0!
00
01
#525000
1!
10
#550000
1#
0!
00
11
12
13
17
1/
1$
08
#575000
1!
10
02
03
#600000
0#
0!
00
01
#625000
1!
10
#650000
1#
0!
00
11
12
13
09
0.
0%
04
#675000
1!
10
02
03
#700000
0#
0!
00
01
#725000
1!
10
#750000
1#
0!
00
11
12
13
07
0/
0$
18
#775000
1!
10
02
03
#800000
0#
0!
00
01
#825000
1!
10
#850000
1#
0!
00
11
12
13
19
1.
1%
14
#875000
1!
10
02
03
#900000
0#
0!
00
01
#925000
1!
10
#950000
1#
0!
00
11
12
13
17
1/
1$
08
#975000
1!
10
02
03
