fifth/Lab4 Quiz/simulation/qsim/lab4quiz.msim.vcd
$comment
	File created using the following command:
		vcd file lab4quiz.msim.vcd -direction
$end
$date
	Fri Jul 09 16:00:42 2021
$end
$version
	ModelSim Version 10.5b
$end
$timescale
	1ps
$end

$scope module lab4quiz_vlg_vec_tst $end
$var reg 1 ! CLK $end
$var reg 4 " INPUT [3:0] $end
$var reg 1 # S0 $end
$var reg 1 $ S1 $end
$var wire 1 % OUTPUT [3] $end
$var wire 1 & OUTPUT [2] $end
$var wire 1 ' OUTPUT [1] $end
$var wire 1 ( OUTPUT [0] $end

$scope module i1 $end
$var wire 1 ) gnd $end
$var wire 1 * vcc $end
$var wire 1 + unknown $end
$var tri1 1 , devclrn $end
$var tri1 1 - devpor $end
$var tri1 1 . devoe $end
$var wire 1 / ~QUARTUS_CREATED_GND~I_combout $end
$var wire 1 0 ~QUARTUS_CREATED_UNVM~~busy $end
$var wire 1 1 OUTPUT[3]~output_o $end
$var wire 1 2 OUTPUT[2]~output_o $end
$var wire 1 3 OUTPUT[1]~output_o $end
$var wire 1 4 OUTPUT[0]~output_o $end
$var wire 1 5 CLK~input_o $end
$var wire 1 6 CLK~inputclkctrl_outclk $end
$var wire 1 7 S0~input_o $end
$var wire 1 8 S1~input_o $end
$var wire 1 9 INPUT[0]~input_o $end
$var wire 1 : inst1|10~0_combout $end
$var wire 1 ; inst1|10~1_combout $end
$var wire 1 < INPUT[1]~input_o $end
$var wire 1 = inst1|9~0_combout $end
$var wire 1 > inst1|9~1_combout $end
$var wire 1 ? INPUT[2]~input_o $end
$var wire 1 @ inst|10~0_combout $end
$var wire 1 A inst|10~1_combout $end
$var wire 1 B INPUT[3]~input_o $end
$var wire 1 C inst|9~0_combout $end
$var wire 1 D inst|9~1_combout $end
$var wire 1 E inst12 [3] $end
$var wire 1 F inst12 [2] $end
$var wire 1 G inst12 [1] $end
$var wire 1 H inst12 [0] $end
$upscope $end
$upscope $end
$enddefinitions $end
#0
$dumpvars
0!
b101 "
1#
0$
0(
0'
0&
0%
0)
1*
x+
1,
1-
1.
0/
z0
01
02
03
04
05
06
17
08
19
1:
1;
0<
0=
0>
1?
1@
1A
0B
0C
0D
0H
0G
0F
0E
$end
#10000
1!
15
16
1F
1H
14
12
1&
1(
#20000
0!
05
06
#30000
1!
15
16
#40000
0!
05
06
#50000
1!
15
16
#60000
0!
05
06
#70000
1!
15
16
#80000
0!
05
06
#90000
1!
15
16
#100000
0!
05
06
#110000
1!
15
16
#120000
0!
05
06
#130000
1!
15
16
#140000
0#
0!
05
07
06
0:
#150000
1!
15
16
#160000
0!
05
06
#170000
1!
15
16
#180000
0!
05
06
#190000
1!
15
16
#200000
0!
05
06
#210000
1!
15
16
#220000
0!
05
06
#230000
1!
15
16
#240000
0!
05
06
#250000
1!
15
16
#260000
0!
05
06
#270000
1!
15
16
#280000
0!
05
06
#290000
1!
15
16
#300000
1$
0!
05
18
06
1C
0@
0A
1>
0;
1D
#310000
1!
15
16
1E
0F
1G
0H
04
13
02
11
1%
0&
1'
0(
0D
1A
0>
#320000
0$
0!
05
08
06
0C
1=
0A
1D
1>
#330000
1!
15
16
#340000
0!
05
06
#350000
1!
15
16
#360000
0!
05
06
#370000
1!
15
16
#380000
0!
05
06
#390000
1!
15
16
#400000
1#
0!
05
17
06
1@
0=
1:
0D
1A
0>
1;
#410000
1!
15
16
0E
1F
0G
1H
14
03
12
01
0%
1&
0'
1(
#420000
0#
0!
05
07
06
0:
#430000
1!
15
16
#440000
0!
05
06
#450000
1!
15
16
#460000
0!
05
06
#470000
1!
15
16
#480000
0!
05
06
#490000
1!
15
16
#500000
0!
05
06
#510000
1!
15
16
#520000
0!
05
06
#530000
1!
15
16
#540000
0!
05
06
#550000
1!
15
16
#560000
0!
05
06
#570000
1!
15
16
#580000
0!
05
06
#590000
1!
15
16
#600000
0!
05
06
#610000
1!
15
16
#620000
0!
05
06
#630000
1!
15
16
#640000
0!
05
06
#650000
1!
15
16
#660000
0!
05
06
#670000
1!
15
16
#680000
0!
05
06
#690000
1!
15
16
#700000
0!
05
06
#710000
1!
15
16
#720000
0!
05
06
#730000
1!
15
16
#740000
0!
05
06
#750000
1!
15
16
#760000
0!
05
06
#770000
1!
15
16
#780000
0!
05
06
#790000
1!
15
16
#800000
0!
05
06
#810000
1!
15
16
#820000
0!
05
06
#830000
1!
15
16
#840000
0!
05
06
#850000
1!
15
16
#860000
0!
05
06
#870000
1!
15
16
#880000
0!
05
06
#890000
1!
15
16
#900000
0!
05
06
#910000
1!
15
16
#920000
0!
05
06
#930000
1!
15
16
#940000
0!
05
06
#950000
1!
15
16
#960000
0!
05
06
#970000
1!
15
16
#980000
0!
05
06
#990000
1!
15
16
