seventh/Part2 Rom/simulation/qsim/LAB6_Part2_VHDL_ROM.msim.vcd
$comment
	File created using the following command:
		vcd file LAB6_Part2_VHDL_ROM.msim.vcd -direction
$end
$date
	Thu Jul 22 22:35:49 2021
$end
$version
	ModelSim Version 10.5b
$end
$timescale
	1ps
$end

$scope module lab6_part2_vhdl_rom_vhd_vec_tst $end
$var wire 1 ! Cin $end
$var wire 1 " CLK $end
$var wire 1 # Cout $end
$var wire 1 $ DIR [3] $end
$var wire 1 % DIR [2] $end
$var wire 1 & DIR [1] $end
$var wire 1 ' DIR [0] $end
$var wire 1 ( INPUT [3] $end
$var wire 1 ) INPUT [2] $end
$var wire 1 * INPUT [1] $end
$var wire 1 + INPUT [0] $end
$var wire 1 , IR [2] $end
$var wire 1 - IR [1] $end
$var wire 1 . IR [0] $end
$var wire 1 / MemCLK $end
$var wire 1 0 OUTPUT [3] $end
$var wire 1 1 OUTPUT [2] $end
$var wire 1 2 OUTPUT [1] $end
$var wire 1 3 OUTPUT [0] $end
$var wire 1 4 PC [3] $end
$var wire 1 5 PC [2] $end
$var wire 1 6 PC [1] $end
$var wire 1 7 PC [0] $end
$var wire 1 8 REGA [3] $end
$var wire 1 9 REGA [2] $end
$var wire 1 : REGA [1] $end
$var wire 1 ; REGA [0] $end
$var wire 1 < REGB [3] $end
$var wire 1 = REGB [2] $end
$var wire 1 > REGB [1] $end
$var wire 1 ? REGB [0] $end
$var wire 1 @ reset $end

$scope module i1 $end
$var wire 1 A gnd $end
$var wire 1 B vcc $end
$var wire 1 C unknown $end
$var wire 1 D devoe $end
$var wire 1 E devclrn $end
$var wire 1 F devpor $end
$var wire 1 G ww_devoe $end
$var wire 1 H ww_devclrn $end
$var wire 1 I ww_devpor $end
$var wire 1 J ww_Cout $end
$var wire 1 K ww_Cin $end
$var wire 1 L ww_reset $end
$var wire 1 M ww_CLK $end
$var wire 1 N ww_MemCLK $end
$var wire 1 O ww_INPUT [3] $end
$var wire 1 P ww_INPUT [2] $end
$var wire 1 Q ww_INPUT [1] $end
$var wire 1 R ww_INPUT [0] $end
$var wire 1 S ww_PC [3] $end
$var wire 1 T ww_PC [2] $end
$var wire 1 U ww_PC [1] $end
$var wire 1 V ww_PC [0] $end
$var wire 1 W ww_IR [2] $end
$var wire 1 X ww_IR [1] $end
$var wire 1 Y ww_IR [0] $end
$var wire 1 Z ww_DIR [3] $end
$var wire 1 [ ww_DIR [2] $end
$var wire 1 \ ww_DIR [1] $end
$var wire 1 ] ww_DIR [0] $end
$var wire 1 ^ ww_OUTPUT [3] $end
$var wire 1 _ ww_OUTPUT [2] $end
$var wire 1 ` ww_OUTPUT [1] $end
$var wire 1 a ww_OUTPUT [0] $end
$var wire 1 b ww_REGA [3] $end
$var wire 1 c ww_REGA [2] $end
$var wire 1 d ww_REGA [1] $end
$var wire 1 e ww_REGA [0] $end
$var wire 1 f ww_REGB [3] $end
$var wire 1 g ww_REGB [2] $end
$var wire 1 h ww_REGB [1] $end
$var wire 1 i ww_REGB [0] $end
$var wire 1 j \inst11~clkctrl_INCLK_bus\ [3] $end
$var wire 1 k \inst11~clkctrl_INCLK_bus\ [2] $end
$var wire 1 l \inst11~clkctrl_INCLK_bus\ [1] $end
$var wire 1 m \inst11~clkctrl_INCLK_bus\ [0] $end
$var wire 1 n \MemCLK~inputclkctrl_INCLK_bus\ [3] $end
$var wire 1 o \MemCLK~inputclkctrl_INCLK_bus\ [2] $end
$var wire 1 p \MemCLK~inputclkctrl_INCLK_bus\ [1] $end
$var wire 1 q \MemCLK~inputclkctrl_INCLK_bus\ [0] $end
$var wire 1 r \reset~inputclkctrl_INCLK_bus\ [3] $end
$var wire 1 s \reset~inputclkctrl_INCLK_bus\ [2] $end
$var wire 1 t \reset~inputclkctrl_INCLK_bus\ [1] $end
$var wire 1 u \reset~inputclkctrl_INCLK_bus\ [0] $end
$var wire 1 v \~QUARTUS_CREATED_GND~I_combout\ $end
$var wire 1 w \~QUARTUS_CREATED_UNVM~~busy\ $end
$var wire 1 x \Cout~output_o\ $end
$var wire 1 y \CLK~output_o\ $end
$var wire 1 z \INPUT[3]~output_o\ $end
$var wire 1 { \INPUT[2]~output_o\ $end
$var wire 1 | \INPUT[1]~output_o\ $end
$var wire 1 } \INPUT[0]~output_o\ $end
$var wire 1 ~ \PC[3]~output_o\ $end
$var wire 1 !! \PC[2]~output_o\ $end
$var wire 1 "! \PC[1]~output_o\ $end
$var wire 1 #! \PC[0]~output_o\ $end
$var wire 1 $! \IR[2]~output_o\ $end
$var wire 1 %! \IR[1]~output_o\ $end
$var wire 1 &! \IR[0]~output_o\ $end
$var wire 1 '! \DIR[3]~output_o\ $end
$var wire 1 (! \DIR[2]~output_o\ $end
$var wire 1 )! \DIR[1]~output_o\ $end
$var wire 1 *! \DIR[0]~output_o\ $end
$var wire 1 +! \OUTPUT[3]~output_o\ $end
$var wire 1 ,! \OUTPUT[2]~output_o\ $end
$var wire 1 -! \OUTPUT[1]~output_o\ $end
$var wire 1 .! \OUTPUT[0]~output_o\ $end
$var wire 1 /! \REGA[3]~output_o\ $end
$var wire 1 0! \REGA[2]~output_o\ $end
$var wire 1 1! \REGA[1]~output_o\ $end
$var wire 1 2! \REGA[0]~output_o\ $end
$var wire 1 3! \REGB[3]~output_o\ $end
$var wire 1 4! \REGB[2]~output_o\ $end
$var wire 1 5! \REGB[1]~output_o\ $end
$var wire 1 6! \REGB[0]~output_o\ $end
$var wire 1 7! \MemCLK~input_o\ $end
$var wire 1 8! \MemCLK~inputclkctrl_outclk\ $end
$var wire 1 9! \inst11~0_combout\ $end
$var wire 1 :! \inst11~feeder_combout\ $end
$var wire 1 ;! \reset~input_o\ $end
$var wire 1 <! \reset~inputclkctrl_outclk\ $end
$var wire 1 =! \inst11~q\ $end
$var wire 1 >! \inst11~clkctrl_outclk\ $end
$var wire 1 ?! \inst33~q\ $end
$var wire 1 @! \inst7|D7~3_combout\ $end
$var wire 1 A! \inst34|Mux4~0_combout\ $end
$var wire 1 B! \inst34|D_sig[3]~feeder_combout\ $end
$var wire 1 C! \inst32|sub|106~0_combout\ $end
$var wire 1 D! \inst32|sub|109~0_combout\ $end
$var wire 1 E! \inst32|sub|110~q\ $end
$var wire 1 F! \inst34|Mux6~0_combout\ $end
$var wire 1 G! \inst34|D_sig[1]~feeder_combout\ $end
$var wire 1 H! \inst32|sub|92~2_combout\ $end
$var wire 1 I! \inst32|sub|92~3_combout\ $end
$var wire 1 J! \inst32|sub|87~q\ $end
$var wire 1 K! \inst34|Mux7~0_combout\ $end
$var wire 1 L! \inst32|sub|75~0_combout\ $end
$var wire 1 M! \inst32|sub|9~q\ $end
$var wire 1 N! \inst32|sub|96~0_combout\ $end
$var wire 1 O! \inst32|sub|102~0_combout\ $end
$var wire 1 P! \inst32|sub|99~q\ $end
$var wire 1 Q! \inst34|Mux5~0_combout\ $end
$var wire 1 R! \inst15|22~0_combout\ $end
$var wire 1 S! \inst16~q\ $end
$var wire 1 T! \inst15|23~0_combout\ $end
$var wire 1 U! \inst1~q\ $end
$var wire 1 V! \inst7|D3~2_combout\ $end
$var wire 1 W! \inst15|24~0_combout\ $end
$var wire 1 X! \inst2~q\ $end
$var wire 1 Y! \inst7|Q0o~combout\ $end
$var wire 1 Z! \inst31~q\ $end
$var wire 1 [! \inst7|D2~0_combout\ $end
$var wire 1 \! \inst7|D7~2_combout\ $end
$var wire 1 ]! \inst8|sub|81~4_combout\ $end
$var wire 1 ^! \inst99|9~0_combout\ $end
$var wire 1 _! \inst47|sub|81~0_combout\ $end
$var wire 1 `! \inst7|D7~1_combout\ $end
$var wire 1 a! \inst47|sub|81~3_combout\ $end
$var wire 1 b! \inst7|D3~0_combout\ $end
$var wire 1 c! \inst7|D3~1_combout\ $end
$var wire 1 d! \inst7|D4~0_combout\ $end
$var wire 1 e! \inst12|10~0_combout\ $end
$var wire 1 f! \inst12|10~1_combout\ $end
$var wire 1 g! \inst13|9~0_combout\ $end
$var wire 1 h! \inst7|D7~0_combout\ $end
$var wire 1 i! \Cin~input_o\ $end
$var wire 1 j! \inst10|sub|81~1_combout\ $end
$var wire 1 k! \inst8|sub|81~1_combout\ $end
$var wire 1 l! \inst10|sub|81~0_combout\ $end
$var wire 1 m! \inst10|sub|81~2_combout\ $end
$var wire 1 n! \inst69|10~0_combout\ $end
$var wire 1 o! \inst69|10~1_combout\ $end
$var wire 1 p! \inst13|10~0_combout\ $end
$var wire 1 q! \inst13|10~1_combout\ $end
$var wire 1 r! \inst17|sub|104~0_combout\ $end
$var wire 1 s! \inst9|sub|81~0_combout\ $end
$var wire 1 t! \inst9|sub|81~1_combout\ $end
$var wire 1 u! \inst9|sub|81~2_combout\ $end
$var wire 1 v! \inst9|sub|81~3_combout\ $end
$var wire 1 w! \inst13|9~1_combout\ $end
$var wire 1 x! \inst69|9~0_combout\ $end
$var wire 1 y! \inst69|9~1_combout\ $end
$var wire 1 z! \inst47|sub|81~1_combout\ $end
$var wire 1 {! \inst17|sub|80~0_combout\ $end
$var wire 1 |! \inst17|sub|80~combout\ $end
$var wire 1 }! \inst47|sub|81~2_combout\ $end
$var wire 1 ~! \inst99|10~0_combout\ $end
$var wire 1 !" \inst99|10~1_combout\ $end
$var wire 1 "" \inst8|sub|81~0_combout\ $end
$var wire 1 #" \inst17|sub|105~0_combout\ $end
$var wire 1 $" \inst17|sub|106~0_combout\ $end
$var wire 1 %" \inst8|sub|81~2_combout\ $end
$var wire 1 &" \inst8|sub|81~3_combout\ $end
$var wire 1 '" \inst99|9~1_combout\ $end
$var wire 1 (" \inst12|9~0_combout\ $end
$var wire 1 )" \inst12|9~1_combout\ $end
$var wire 1 *" \inst17|sub|107~0_combout\ $end
$var wire 1 +" inst94 [3] $end
$var wire 1 ," inst94 [2] $end
$var wire 1 -" inst94 [1] $end
$var wire 1 ." inst94 [0] $end
$var wire 1 /" inst4 [3] $end
$var wire 1 0" inst4 [2] $end
$var wire 1 1" inst4 [1] $end
$var wire 1 2" inst4 [0] $end
$var wire 1 3" inst19 [3] $end
$var wire 1 4" inst19 [2] $end
$var wire 1 5" inst19 [1] $end
$var wire 1 6" inst19 [0] $end
$var wire 1 7" \inst34|D_sig\ [7] $end
$var wire 1 8" \inst34|D_sig\ [6] $end
$var wire 1 9" \inst34|D_sig\ [5] $end
$var wire 1 :" \inst34|D_sig\ [4] $end
$var wire 1 ;" \inst34|D_sig\ [3] $end
$var wire 1 <" \inst34|D_sig\ [2] $end
$var wire 1 =" \inst34|D_sig\ [1] $end
$var wire 1 >" \inst34|D_sig\ [0] $end
$var wire 1 ?" \ALT_INV_reset~inputclkctrl_outclk\ $end
$upscope $end
$upscope $end
$enddefinitions $end
#0
$dumpvars
0!
0"
0#
0/
0@
0A
1B
xC
1D
1E
1F
1G
1H
1I
0J
0K
0L
0M
0N
0v
zw
0x
0y
0z
0{
0|
0}
0~
0!!
0"!
0#!
0$!
0%!
0&!
0'!
0(!
0)!
0*!
0+!
0,!
0-!
0.!
0/!
00!
01!
02!
03!
04!
05!
06!
07!
08!
19!
1:!
0;!
0<!
0=!
0>!
0?!
0@!
0A!
0B!
0C!
0D!
0E!
1F!
1G!
0H!
0I!
0J!
0K!
0L!
0M!
0N!
0O!
0P!
0Q!
0R!
0S!
0T!
0U!
0V!
0W!
0X!
1Y!
0Z!
1[!
0\!
0]!
0^!
1_!
0`!
0a!
0b!
1c!
0d!
0e!
0f!
0g!
1h!
0i!
0j!
0k!
0l!
0m!
0n!
0o!
0p!
0q!
0r!
0s!
0t!
0u!
0v!
0w!
0x!
0y!
0z!
0{!
0|!
0}!
0~!
0!"
0""
0#"
0$"
0%"
0&"
0'"
0("
0)"
0*"
1?"
0O
0P
0Q
0R
0S
0T
0U
0V
0W
0X
0Y
0Z
0[
0\
0]
0^
0_
0`
0a
0b
0c
0d
0e
0f
0g
0h
0i
0+"
0,"
0-"
0."
0/"
00"
01"
02"
x3"
04"
x5"
x6"
x7"
x8"
x9"
x:"
0;"
0<"
0="
0>"
1n
1o
1p
0q
1r
1s
1t
0u
1j
1k
1l
0m
0$
0%
0&
0'
0(
0)
0*
0+
0,
0-
0.
00
01
02
03
04
05
06
07
08
09
0:
0;
0<
0=
0>
0?
$end
#10000
1/
1N
17!
1q
18!
1=!
1="
1m
1|
1y
1T!
09!
1Q
1M
1)!
0:!
1*
1"
1>!
1\
1&
1U!
1Z!
1%!
1L!
0Y!
1V!
1X
1-
#20000
0/
0N
07!
0q
08!
#30000
1/
1N
17!
1q
18!
0=!
0m
0y
19!
0M
1:!
0"
0>!
#40000
0/
0N
07!
0q
08!
#50000
1/
1N
17!
1q
18!
1=!
1m
1y
09!
1M
0:!
1"
1>!
1?!
1M!
0Z!
1#!
1K!
1Q!
1H!
0L!
0V!
0[!
1V
1x!
1I!
17
1y!
#60000
0/
0N
07!
0q
08!
#70000
1/
1N
17!
1q
18!
0=!
1>"
1<"
0m
1{
1}
0y
1~!
1n!
19!
1P
1R
0M
1:!
1o!
1!"
1+
1)
0"
0>!
#80000
0/
0N
07!
0q
08!
#90000
1/
1N
17!
1q
18!
1=!
1m
1y
09!
1M
0:!
1"
1>!
0?!
1J!
0M!
1."
1-"
1,"
10!
11!
12!
0#!
1"!
1a!
14"
1{!
1u!
1v!
1m!
0F!
0K!
1R!
1W!
1Y!
1[!
1c
1d
1e
0V
1U
1*!
1(!
1.!
1-!
1,!
0n!
0G!
1|!
1z!
1;
1:
19
07
16
1]
1[
1a
1`
1_
1}!
1'
1%
13
12
11
#100000
0/
0N
07!
0q
08!
#110000
1/
1N
17!
1q
18!
0=!
0="
0>"
0m
0}
0|
0y
0W!
0T!
19!
0R
0Q
0M
0)!
0*!
1:!
0+
0*
0"
0>!
0\
0]
0'
0&
#120000
0/
0N
07!
0q
08!
#130000
1/
1N
17!
1q
18!
1=!
1m
1y
09!
1M
0:!
1"
1>!
1S!
0U!
1Z!
0%!
1$!
1L!
0Y!
1\!
1`!
0h!
0X
1W
0u!
1j!
1t!
0z!
1]!
0_!
0-
1,
1^!
1n!
0}!
1u!
0v!
0y!
0-!
1v!
1y!
0a!
0!"
0`
0,!
1-!
02
0_
1`
12
01
#140000
0/
0N
07!
0q
08!
#150000
1/
1N
17!
1q
18!
0=!
0m
0y
19!
0M
1:!
0"
0>!
#160000
0/
0N
07!
0q
08!
#170000
1/
1N
17!
1q
18!
1=!
1m
1y
09!
1M
0:!
1"
1>!
1M!
0Z!
0,"
00!
1#!
04"
0t!
0{!
1Y!
0\!
0`!
1h!
1K!
0Q!
0c
1V
0j!
0]!
1_!
0|!
09
17
0^!
0n!
0~!
1!"
0!"
#180000
0/
0N
07!
0q
08!
#190000
1/
1N
17!
1q
18!
0=!
1>"
0<"
0m
0{
1}
0y
0R!
1W!
19!
0P
1R
0M
1*!
0(!
1:!
1+
0)
0"
0>!
1]
0[
1'
0%
#200000
0/
0N
07!
0q
08!
#210000
1/
1N
17!
1q
18!
1=!
1m
1y
09!
1M
0:!
1"
1>!
0S!
1X!
1Z!
1&!
0$!
0H!
0L!
1N!
1\!
0Y!
1b!
1Y
0W
0c!
1d!
1O!
0I!
1.
0,
1w!
1p!
1q!
#220000
0/
0N
07!
0q
08!
#230000
1/
1N
17!
1q
18!
0=!
0m
0y
19!
0M
1:!
0"
0>!
#240000
0/
0N
07!
0q
08!
#250000
1/
1N
17!
1q
18!
1=!
1m
1y
09!
1M
0:!
1"
1>!
0J!
0M!
1P!
0Z!
12"
11"
15!
16!
1!!
0#!
0"!
1s!
1|!
1#"
1r!
1Y!
0\!
1c!
1C!
0O!
1F!
0K!
0N!
1h
1i
1T
0V
0U
0C!
1O!
1G!
1D!
1e!
1g!
1("
0d!
1?
1>
07
06
15
0e!
0p!
0("
1)"
0D!
0)"
#260000
0/
0N
07!
0q
08!
#270000
1/
1N
17!
1q
18!
0=!
1="
0>"
0m
0}
1|
0y
0W!
1T!
19!
0R
1Q
0M
1)!
0*!
1:!
0+
1*
0"
0>!
1\
0]
0'
1&
#280000
0/
0N
07!
0q
08!
#290000
1/
1N
17!
1q
18!
1=!
1m
1y
09!
1M
0:!
1"
1>!
1U!
0X!
1Z!
0&!
1%!
1L!
0c!
0Y!
1V!
0b!
0Y
1X
1c!
0q!
0.
1-
1q!
#300000
0/
0N
07!
0q
08!
#310000
1/
1N
17!
1q
18!
0=!
0m
0y
19!
0M
1:!
0"
0>!
#320000
0/
0N
07!
0q
08!
#330000
1/
1N
17!
1q
18!
1=!
1m
1y
09!
1M
0:!
1"
1>!
1?!
1M!
0Z!
1#!
1K!
1Q!
1H!
0L!
0V!
0[!
1V
0o!
1I!
17
#340000
0/
0N
07!
0q
08!
#350000
1/
1N
17!
1q
18!
0=!
1>"
1<"
0m
1{
1}
0y
1~!
1n!
19!
1P
1R
0M
1:!
1o!
1!"
1+
1)
0"
0>!
#360000
0/
0N
07!
0q
08!
#370000
1/
1N
17!
1q
18!
1=!
1m
1y
09!
1M
0:!
1"
1>!
0?!
1J!
0M!
1,"
10!
0#!
1"!
1a!
14"
1{!
1$"
0F!
0K!
0Q!
1R!
1W!
1Y!
1[!
1c
0V
1U
1*!
1(!
1,!
0n!
0G!
0|!
1z!
19
07
16
1]
1[
1_
1}!
1'
1%
11
#380000
0/
0N
07!
0q
08!
#390000
1/
1N
17!
1q
18!
0=!
0="
0>"
0<"
0m
0{
0}
0|
0y
0R!
0W!
0T!
19!
0P
0R
0Q
0M
0)!
0*!
0(!
1:!
0+
0*
0)
0"
0>!
0\
0]
0[
0'
0&
0%
#400000
0/
0N
07!
0q
08!
#410000
1/
1N
17!
1q
18!
1=!
1m
1y
09!
1M
0:!
1"
1>!
0U!
1Z!
0%!
1L!
0Y!
1\!
1`!
0X
1k!
0s!
1t!
0}!
1]!
0_!
0-
0m!
1^!
1n!
0a!
0!"
1%"
0,!
0.!
1&"
0o!
0_
0a
1+!
1'"
03
01
1^
10
#420000
0/
0N
07!
0q
08!
#430000
1/
1N
17!
1q
18!
0=!
0m
0y
19!
0M
1:!
0"
0>!
#440000
0/
0N
07!
0q
08!
#450000
1/
1N
17!
1q
18!
1=!
1m
1y
09!
1M
0:!
1"
1>!
1M!
0Z!
0."
0,"
1+"
1/!
00!
02!
1#!
0%"
1*"
04"
0{!
0$"
1l!
0r!
1Y!
0\!
0`!
1K!
1Q!
1b
0c
0e
1V
1x
0k!
0t!
1}!
0]!
1_!
1s!
1m!
1%"
0*"
1|!
0z!
0&"
0;
09
18
17
1J
0+!
0x
1.!
0'"
0}!
1o!
1&"
0^!
0n!
0~!
1!"
0l!
0%"
1#
0^
0J
1a
1+!
0m!
0o!
1'"
0!"
13
00
0#
1^
0.!
10
0a
03
#460000
0/
0N
07!
0q
08!
#470000
1/
1N
17!
1q
18!
0=!
1>"
1<"
0m
1{
1}
0y
1R!
1W!
19!
1P
1R
0M
1*!
1(!
1:!
1+
1)
0"
0>!
1]
1[
1'
1%
#480000
0/
0N
07!
0q
08!
#490000
1/
1N
17!
1q
18!
1=!
1m
1y
09!
1M
0:!
1"
1>!
1S!
1X!
1Z!
1&!
1$!
0H!
0L!
1N!
1\!
0Y!
0h!
1Y
1W
0u!
1z!
1]!
0_!
1C!
0O!
0I!
1.
1,
1D!
0&"
1^!
1n!
1~!
1}!
0v!
0y!
0-!
0+!
1a!
1!"
0'"
0`
0^
1,!
02
00
1_
11
#500000
0/
0N
07!
0q
08!
#510000
1/
1N
17!
1q
18!
0=!
0m
0y
19!
0M
1:!
0"
0>!
#520000
0/
0N
07!
0q
08!
#530000
1/
1N
17!
1q
18!
1=!
1m
1y
09!
1M
0:!
1"
1>!
1E!
0J!
0M!
0P!
0Z!
0-"
1,"
0+"
0/!
10!
01!
0!!
0#!
0"!
1~
14"
1{!
1""
1$"
0z!
0|!
0#"
1Y!
0\!
1h!
0C!
1O!
0N!
0D!
0Q!
0b
1c
0d
0T
0V
0U
1S
0O!
1D!
1u!
0""
0]!
1_!
0$"
0}!
1&"
1|!
1z!
0:
19
08
07
06
05
14
1+!
1}!
1'"
0^!
0n!
0x!
0&"
1y!
1^
0+!
0y!
0'"
10
0^
00
#540000
0/
0N
07!
0q
08!
#550000
1/
1N
17!
1q
18!
0=!
0<"
0m
0{
0y
0R!
19!
0P
0M
0(!
1:!
0)
0"
0>!
0[
0%
#560000
0/
0N
07!
0q
08!
#570000
1/
1N
17!
1q
18!
1=!
1m
1y
09!
1M
0:!
1"
1>!
0S!
1Z!
0$!
1L!
0Y!
1\!
1b!
0W
0c!
1d!
0,
0w!
1e!
0g!
0q!
1f!
#580000
0/
0N
07!
0q
08!
#590000
1/
1N
17!
1q
18!
0=!
0m
0y
19!
0M
1:!
0"
0>!
#600000
0/
0N
07!
0q
08!
#610000
1/
1N
17!
1q
18!
1=!
1m
1y
09!
1M
0:!
1"
1>!
1M!
0Z!
10"
02"
01"
05!
06!
14!
1#!
0s!
0{!
1$"
1Y!
0\!
1c!
1F!
0h
0i
1g
1V
1G!
1g!
1p!
1("
0d!
0|!
0u!
0?
0>
1=
17
0e!
0g!
0p!
0("
1)"
1w!
0)"
0w!
#620000
0/
0N
07!
0q
08!
#630000
1/
1N
17!
1q
18!
0=!
1="
0m
1|
0y
1T!
19!
1Q
0M
1)!
1:!
1*
0"
0>!
1\
1&
#640000
0/
0N
07!
0q
08!
#650000
1/
1N
17!
1q
18!
1=!
1m
1y
09!
1M
0:!
1"
1>!
1U!
1Z!
1%!
1H!
0L!
0Y!
0c!
1V!
0b!
1X
1c!
1Y!
0f!
1g!
1p!
1I!
1-
1w!
1f!
0g!
0p!
0w!
#660000
0/
0N
07!
0q
08!
#670000
1/
1N
17!
1q
18!
0=!
0m
0y
19!
0M
1:!
0"
0>!
#680000
0/
0N
07!
0q
08!
#690000
1/
1N
17!
1q
18!
1=!
1m
1y
09!
1M
0:!
1"
1>!
1?!
1J!
0M!
0#!
1"!
1@!
0H!
1L!
0V!
0V
1U
0Y!
0D!
07
16
#700000
0/
0N
07!
0q
08!
#710000
1/
1N
17!
1q
18!
0=!
0m
0y
19!
0M
1:!
0"
0>!
#720000
0/
0N
07!
0q
08!
#730000
1/
1N
17!
1q
18!
1=!
1m
1y
09!
1M
0:!
1"
1>!
0?!
0E!
1M!
0Z!
1#!
0~
0F!
0@!
1H!
0I!
1Y!
1V
0S
1I!
0G!
17
04
#740000
0/
0N
07!
0q
08!
#750000
1/
1N
17!
1q
18!
0=!
0="
0m
0|
0y
0T!
19!
0Q
0M
0)!
1:!
0*
0"
0>!
0\
0&
#760000
0/
0N
07!
0q
08!
#770000
1/
1N
17!
1q
18!
1=!
1m
1y
09!
1M
0:!
1"
1>!
0U!
1Z!
0%!
0H!
0L!
1N!
0Y!
1\!
1b!
0X
0c!
1d!
1O!
0I!
0-
1e!
0f!
1f!
#780000
0/
0N
07!
0q
08!
#790000
1/
1N
17!
1q
18!
0=!
0m
0y
19!
0M
1:!
0"
0>!
#800000
0/
0N
07!
0q
08!
#810000
1/
1N
17!
1q
18!
1=!
1m
1y
09!
1M
0:!
1"
1>!
0J!
0M!
1P!
0Z!
1!!
0#!
0"!
1Y!
0\!
1c!
1C!
0O!
1F!
0K!
0N!
1T
0V
0U
0C!
1O!
1G!
1D!
1g!
1p!
1("
0d!
07
06
15
0e!
0g!
0p!
0("
1)"
1w!
0D!
0)"
0w!
#820000
0/
0N
07!
0q
08!
#830000
1/
1N
17!
1q
18!
0=!
1="
0>"
0m
0}
1|
0y
0W!
1T!
19!
0R
1Q
0M
1)!
0*!
1:!
0+
1*
0"
0>!
1\
0]
0'
1&
#840000
0/
0N
07!
0q
08!
#850000
1/
1N
17!
1q
18!
1=!
1m
1y
09!
1M
0:!
1"
1>!
1U!
0X!
1Z!
0&!
1%!
1L!
0c!
0Y!
1V!
0b!
0Y
1X
1c!
0f!
1g!
0.
1-
1w!
1f!
0g!
0w!
#860000
0/
0N
07!
0q
08!
#870000
1/
1N
17!
1q
18!
0=!
0m
0y
19!
0M
1:!
0"
0>!
#880000
0/
0N
07!
0q
08!
#890000
1/
1N
17!
1q
18!
1=!
1m
1y
09!
1M
0:!
1"
1>!
1?!
1M!
0Z!
1#!
1K!
1Q!
1H!
0L!
0V!
0[!
1V
1x!
0~!
1I!
17
0!"
1y!
#900000
0/
0N
07!
0q
08!
#910000
1/
1N
17!
1q
18!
0=!
1>"
1<"
0m
1{
1}
0y
1~!
1n!
19!
1P
1R
0M
1:!
1o!
1!"
1+
1)
0"
0>!
#920000
0/
0N
07!
0q
08!
#930000
1/
1N
17!
1q
18!
1=!
1m
1y
09!
1M
0:!
1"
1>!
0?!
1J!
0M!
1."
1-"
11!
12!
0#!
1"!
1u!
1v!
1m!
0F!
0K!
0Q!
1R!
1W!
1Y!
1[!
1d
1e
0V
1U
1*!
1(!
1.!
1-!
0n!
0G!
1;
1:
07
16
1]
1[
1a
1`
1'
1%
13
12
#940000
0/
0N
07!
0q
08!
#950000
1/
1N
17!
1q
18!
0=!
0="
0>"
0<"
0m
0{
0}
0|
0y
0R!
0W!
0T!
19!
0P
0R
0Q
0M
0)!
0*!
0(!
1:!
0+
0*
0)
0"
0>!
0\
0]
0[
0'
0&
0%
#960000
0/
0N
07!
0q
08!
#970000
1/
1N
17!
1q
18!
1=!
1m
1y
09!
1M
0:!
1"
1>!
0U!
1Z!
0%!
1L!
0Y!
1\!
1`!
0X
1k!
1t!
0}!
1]!
0_!
0-
0m!
1^!
1n!
0a!
0!"
1l!
1%"
0,!
0.!
1&"
1m!
0o!
0_
0a
1.!
1+!
1o!
1'"
03
01
1a
1^
13
10
#980000
0/
0N
07!
0q
08!
#990000
1/
1N
17!
1q
18!
0=!
0m
0y
19!
0M
1:!
0"
0>!
#1000000
0/
0N
07!
0q
08!
#1010000
1/
1N
17!
1q
18!
1=!
1m
1y
09!
1M
0:!
1"
1>!
1M!
0Z!
0,"
1+"
1/!
00!
1#!
0%"
1*"
1{!
0$"
1Y!
0\!
0`!
1K!
1Q!
1b
0c
1V
1x
0k!
0t!
1}!
0]!
1_!
1%"
0*"
1|!
0&"
09
18
17
1J
0+!
0x
0'"
1&"
0^!
0n!
0~!
1!"
0l!
0%"
1#
0^
0J
1+!
0!"
1'"
00
0#
1^
10
#1020000
0/
0N
07!
0q
08!
#1030000
1/
1N
17!
1q
18!
0=!
1>"
1<"
0m
1{
1}
0y
1R!
1W!
19!
1P
1R
0M
1*!
1(!
1:!
1+
1)
0"
0>!
1]
1[
1'
1%
#1040000
0/
0N
07!
0q
08!
#1050000
1/
1N
17!
1q
18!
1=!
1m
1y
09!
1M
0:!
1"
1>!
1S!
1X!
1Z!
1&!
1$!
0H!
0L!
1N!
1\!
0Y!
0h!
1Y
1W
1t!
0u!
1]!
0_!
1C!
0O!
0I!
1.
1,
1D!
0m!
0&"
1^!
1a!
1n!
1~!
1!"
0v!
0y!
1u!
0-!
1,!
0+!
0.!
1v!
1y!
0'"
0o!
0`
1_
0^
0a
1-!
03
02
11
00
1`
12
#1060000
0/
0N
07!
0q
08!
#1070000
1/
1N
17!
1q
18!
0=!
0m
0y
19!
0M
1:!
0"
0>!
#1080000
0/
0N
07!
0q
08!
#1090000
1/
1N
17!
1q
18!
1=!
1m
1y
09!
1M
0:!
1"
1>!
1E!
0J!
0M!
0P!
0Z!
0."
1,"
0+"
0/!
10!
02!
0!!
0#!
0"!
1~
0{!
1""
1$"
0t!
1Y!
0\!
1h!
0C!
1O!
0N!
0D!
0Q!
0b
1c
0e
0T
0V
0U
1S
0O!
1D!
0""
0]!
1_!
1&"
0|!
0;
19
08
07
06
05
14
1+!
1'"
0^!
0n!
0&"
1^
0+!
0'"
10
0^
00
#1100000
0/
0N
07!
0q
08!
#1110000
1/
1N
17!
1q
18!
0=!
0<"
0m
0{
0y
0R!
19!
0P
0M
0(!
1:!
0)
0"
0>!
0[
0%
#1120000
0/
0N
07!
0q
08!
#1130000
1/
1N
17!
1q
18!
1=!
1m
1y
09!
1M
0:!
1"
1>!
0S!
1Z!
0$!
1L!
0Y!
1\!
1b!
0W
0c!
1d!
0,
1w!
1e!
0f!
1f!
#1140000
0/
0N
07!
0q
08!
#1150000
1/
1N
17!
1q
18!
0=!
0m
0y
19!
0M
1:!
0"
0>!
#1160000
0/
0N
07!
0q
08!
#1170000
1/
1N
17!
1q
18!
1=!
1m
1y
09!
1M
0:!
1"
1>!
1M!
0Z!
11"
15!
1#!
1s!
1|!
1#"
1Y!
0\!
1c!
1F!
1h
1V
1G!
1g!
1p!
1("
0d!
1>
17
0e!
0p!
0("
1)"
0)"
#1180000
0/
0N
07!
0q
08!
#1190000
1/
1N
17!
1q
18!
0=!
1="
0m
1|
0y
1T!
19!
1Q
0M
1)!
1:!
1*
0"
0>!
1\
1&
#1200000
0/
0N
07!
0q
08!
#1210000
1/
1N
17!
1q
18!
1=!
1m
1y
09!
1M
0:!
1"
1>!
1U!
1Z!
1%!
1H!
0L!
0Y!
0c!
1V!
0b!
1X
1c!
1Y!
0f!
1p!
1I!
1-
1f!
0p!
#1220000
0/
0N
07!
0q
08!
#1230000
1/
1N
17!
1q
18!
0=!
0m
0y
19!
0M
1:!
0"
0>!
#1240000
0/
0N
07!
0q
08!
#1250000
1/
1N
17!
1q
18!
1=!
1m
1y
09!
1M
0:!
1"
1>!
1?!
1J!
0M!
0#!
1"!
1@!
0H!
1L!
0V!
0V
1U
0Y!
0D!
07
16
#1260000
0/
0N
07!
0q
08!
#1270000
1/
1N
17!
1q
18!
0=!
0m
0y
19!
0M
1:!
0"
0>!
#1280000
0/
0N
07!
0q
08!
