sixth/simulation/qsim/Lab5_DFF_Traff_Cont.msim.vcd
$comment
	File created using the following command:
		vcd file Lab5_DFF_Traff_Cont.msim.vcd -direction
$end
$date
	Thu Jul 15 02:00:57 2021
$end
$version
	ModelSim Version 10.5b
$end
$timescale
	1ps
$end

$scope module lab5_dff_traf_cont_vhd_vec_tst $end
$var wire 1 ! CLK $end
$var wire 1 " CW $end
$var wire 1 # EV $end
$var wire 1 $ green $end
$var wire 1 % Q [3] $end
$var wire 1 & Q [2] $end
$var wire 1 ' Q [1] $end
$var wire 1 ( Q [0] $end
$var wire 1 ) R $end
$var wire 1 * red $end
$var wire 1 + Restart $end
$var wire 1 , S $end
$var wire 1 - yellow $end

$scope module i1 $end
$var wire 1 . gnd $end
$var wire 1 / vcc $end
$var wire 1 0 unknown $end
$var wire 1 1 devoe $end
$var wire 1 2 devclrn $end
$var wire 1 3 devpor $end
$var wire 1 4 ww_devoe $end
$var wire 1 5 ww_devclrn $end
$var wire 1 6 ww_devpor $end
$var wire 1 7 ww_red $end
$var wire 1 8 ww_EV $end
$var wire 1 9 ww_CW $end
$var wire 1 : ww_Q [3] $end
$var wire 1 ; ww_Q [2] $end
$var wire 1 < ww_Q [1] $end
$var wire 1 = ww_Q [0] $end
$var wire 1 > ww_Restart $end
$var wire 1 ? ww_CLK $end
$var wire 1 @ ww_yellow $end
$var wire 1 A ww_green $end
$var wire 1 B ww_S $end
$var wire 1 C ww_R $end
$var wire 1 D \CLK~inputclkctrl_INCLK_bus\ [3] $end
$var wire 1 E \CLK~inputclkctrl_INCLK_bus\ [2] $end
$var wire 1 F \CLK~inputclkctrl_INCLK_bus\ [1] $end
$var wire 1 G \CLK~inputclkctrl_INCLK_bus\ [0] $end
$var wire 1 H \S~input_o\ $end
$var wire 1 I \R~input_o\ $end
$var wire 1 J \~QUARTUS_CREATED_GND~I_combout\ $end
$var wire 1 K \~QUARTUS_CREATED_UNVM~~busy\ $end
$var wire 1 L \red~output_o\ $end
$var wire 1 M \Q[3]~output_o\ $end
$var wire 1 N \Q[2]~output_o\ $end
$var wire 1 O \Q[1]~output_o\ $end
$var wire 1 P \Q[0]~output_o\ $end
$var wire 1 Q \yellow~output_o\ $end
$var wire 1 R \green~output_o\ $end
$var wire 1 S \CLK~input_o\ $end
$var wire 1 T \CLK~inputclkctrl_outclk\ $end
$var wire 1 U \EV~input_o\ $end
$var wire 1 V \inst7|yellow~0_combout\ $end
$var wire 1 W \inst7|D3~0_combout\ $end
$var wire 1 X \inst7|D3~1_combout\ $end
$var wire 1 Y \Restart~input_o\ $end
$var wire 1 Z \inst7|D1~0_combout\ $end
$var wire 1 [ \CW~input_o\ $end
$var wire 1 \ \inst7|D2~2_combout\ $end
$var wire 1 ] \inst7|D2~3_combout\ $end
$var wire 1 ^ \inst7|D1~1_combout\ $end
$var wire 1 _ \inst7|D2~1_combout\ $end
$var wire 1 ` \inst7|D0~0_combout\ $end
$var wire 1 a \inst7|D0~1_combout\ $end
$var wire 1 b \inst7|D2~4_combout\ $end
$var wire 1 c \inst7|D2~5_combout\ $end
$var wire 1 d \inst7|D2~6_combout\ $end
$var wire 1 e \inst7|red~0_combout\ $end
$var wire 1 f \inst7|yellow~1_combout\ $end
$var wire 1 g \inst7|D2~0_combout\ $end
$var wire 1 h \inst7|green~0_combout\ $end
$var wire 1 i inst [3] $end
$var wire 1 j inst [2] $end
$var wire 1 k inst [1] $end
$var wire 1 l inst [0] $end
$var wire 1 m \ALT_INV_Restart~input_o\ $end
$upscope $end
$upscope $end
$enddefinitions $end
#0
$dumpvars
0!
0"
1#
1$
0)
0*
1+
0,
0-
0.
1/
x0
11
12
13
14
15
16
07
18
09
1>
0?
0@
1A
0B
0C
0H
0I
0J
zK
0L
0M
0N
0O
0P
0Q
1R
0S
0T
1U
0V
0W
0X
1Y
1Z
0[
0\
0]
0^
0_
1`
1a
1b
0c
0d
0e
0f
1g
1h
0m
0:
0;
0<
0=
0i
0j
0k
0l
1D
1E
1F
0G
0%
0&
0'
0(
$end
#25000
1!
0+
1?
0>
0Y
1S
1m
1G
1T
1l
1P
1W
1^
0a
1=
1(
#50000
0!
0?
0S
0G
0T
#75000
1!
1?
1S
1G
1T
1k
0l
0P
1O
0^
1a
0Z
1]
0=
1<
1^
0(
1'
#100000
0!
0?
0S
0G
0T
#125000
1!
1?
1S
1G
1T
1l
1P
0^
0a
1d
1=
1(
#150000
0!
0?
0S
0G
0T
#175000
1!
1?
1S
1G
1T
0k
0l
1j
1N
0P
0O
1^
1a
0d
0W
1Z
0]
1c
1;
0=
0<
1d
0^
0(
0'
1&
#200000
0!
0?
0S
0G
0T
#225000
1!
1?
1S
1G
1T
1l
1P
1^
0a
1=
1(
#250000
0!
0?
0S
0G
0T
#275000
1!
1?
1S
1G
1T
1k
0l
0P
1O
0^
1a
0Z
1_
0`
0c
0=
1<
0d
0a
0(
1'
#300000
0!
0?
0S
0G
0T
#325000
1!
1?
1S
1G
1T
0k
0j
0N
0O
1Z
0_
1`
0;
0<
1a
0'
0&
#350000
0!
0?
0S
0G
0T
#375000
1!
1?
1S
1G
1T
1l
1P
1W
1^
0a
1=
1(
#400000
0!
0?
0S
0G
0T
#425000
1!
1"
1?
19
1[
1S
1G
1T
1k
0l
0P
1O
0^
1a
0Z
1]
0=
1<
1^
0(
1'
#450000
0!
0?
0S
0G
0T
#475000
1!
1?
1S
1G
1T
1l
1P
0^
0a
1d
1=
1(
#500000
0!
0?
0S
0G
0T
#525000
1!
1?
1S
1G
1T
0k
0l
1j
1N
0P
0O
1^
1a
0d
0W
1Z
0]
1c
1;
0=
0<
1d
0^
0(
0'
1&
#550000
0!
0?
0S
0G
0T
#575000
1!
1?
1S
1G
1T
1l
1P
1^
0a
1=
1(
#600000
0!
0?
0S
0G
0T
#625000
1!
1?
1S
1G
1T
1k
0l
0P
1O
0^
1a
0Z
1_
0`
0c
0=
1<
0d
1\
0(
1'
1^
1d
#650000
0!
0?
0S
0G
0T
#675000
1!
1?
1S
1G
1T
1l
1P
1V
0\
0a
0h
1=
0R
0^
0d
1X
1f
1(
0A
1Q
0$
1@
1-
#700000
0!
0?
0S
0G
0T
#725000
1!
1?
1S
1G
1T
1i
0k
0l
0j
0N
0P
0O
1M
1\
1a
1h
1Z
0_
1`
0b
0g
0;
0=
0<
1:
1R
0h
0\
1^
1d
0(
0'
0&
1%
1A
0R
0^
0d
1$
0A
0$
#750000
0!
0?
0S
0G
0T
#775000
1!
1?
1S
1G
1T
1l
1P
0V
1W
1^
0a
1e
1=
1L
0f
1(
17
0Q
1*
0@
0-
#800000
0!
0?
0S
0G
0T
#825000
1!
1?
1S
1G
1T
1k
0l
0P
1O
0^
1a
0Z
1]
0=
1<
1^
0(
1'
#850000
0!
0?
0S
0G
0T
#875000
1!
1?
1S
1G
1T
1l
1P
0^
0a
1d
1=
1(
#900000
0!
0"
0?
09
0[
0S
0G
0T
#925000
1!
1?
1S
1G
1T
0k
0l
1j
1N
0P
0O
1^
1a
0d
0W
0]
0`
1;
0=
0<
0a
0^
0X
0(
0'
1&
#950000
0!
0?
0S
0G
0T
#975000
1!
1?
1S
1G
1T
0i
0j
0N
0M
1Z
1`
1b
0e
1g
0;
0:
0L
1h
1a
0&
0%
07
1R
0*
1A
1$
#1000000
0!
0?
0S
0G
0T
#1025000
1!
1?
1S
1G
1T
1l
1P
1W
1^
0a
1=
1(
#1050000
0!
0?
0S
0G
0T
#1075000
1!
0#
1?
08
0U
1S
1G
1X
0Z
0`
0b
1f
0g
1Q
0h
0^
1T
1@
0R
1-
1i
0l
0A
0$
0P
1M
0W
1V
1Z
1`
1b
0f
0=
1:
0Q
1a
1f
0(
1%
0@
1Q
0-
1@
1-
#1100000
0!
0?
0S
0G
0T
#1125000
1!
1?
1S
1G
1T
1l
1P
0V
1W
1^
0a
0b
1e
1=
1L
0f
1(
17
0Q
1*
0@
0-
#1150000
0!
0?
0S
0G
0T
#1175000
1!
1?
1S
1G
1T
1k
0l
0P
1O
0^
1a
1b
0Z
1]
0=
1<
1^
0(
1'
#1200000
0!
0?
0S
0G
0T
#1225000
1!
1?
1S
1G
1T
1l
1P
0^
0a
0b
1d
1=
1(
#1250000
0!
0?
0S
0G
0T
#1275000
1!
1?
1S
1G
1T
0k
0l
1j
1N
0P
0O
1^
1a
1b
0d
0]
0`
1;
0=
0<
0a
0^
1c
0(
0'
1&
1d
#1300000
0!
0?
0S
0G
0T
#1325000
1!
1?
1S
1G
1T
#1350000
0!
0?
0S
0G
0T
#1375000
1!
1?
1S
1G
1T
#1400000
0!
1#
0?
18
1U
0S
0G
0W
0b
0c
0X
0T
0d
#1425000
1!
1?
1S
1G
1T
0i
0j
0N
0M
1Z
1`
1b
0e
1g
0;
0:
0L
1h
1a
0&
0%
07
1R
0*
1A
1$
#1450000
0!
0?
0S
0G
0T
#1475000
1!
1?
1S
1G
1T
1l
1P
1W
1^
0a
1=
1(
#1500000
0!
0?
0S
0G
0T
#1525000
1!
1?
1S
1G
1T
1k
0l
0P
1O
0^
1a
0Z
1]
0=
1<
1^
0(
1'
#1550000
0!
0?
0S
0G
0T
#1575000
1!
1?
1S
1G
1T
1l
1P
0^
0a
1d
1=
1(
