seventh/Part1/simulation/qsim/LAB6_Part1.msim.vcd
$comment
	File created using the following command:
		vcd file LAB6_Part1.msim.vcd -direction
$end
$date
	Thu Jul 22 04:44:45 2021
$end
$version
	ModelSim Version 10.5b
$end
$timescale
	1ps
$end

$scope module lab6_part1_vhd_vec_tst $end
$var wire 1 ! Cin $end
$var wire 1 " CLK $end
$var wire 1 # Cout $end
$var wire 1 $ INPUT [3] $end
$var wire 1 % INPUT [2] $end
$var wire 1 & INPUT [1] $end
$var wire 1 ' INPUT [0] $end
$var wire 1 ( OUTPUT [3] $end
$var wire 1 ) OUTPUT [2] $end
$var wire 1 * OUTPUT [1] $end
$var wire 1 + OUTPUT [0] $end
$var wire 1 , REGA [3] $end
$var wire 1 - REGA [2] $end
$var wire 1 . REGA [1] $end
$var wire 1 / REGA [0] $end
$var wire 1 0 REGB [3] $end
$var wire 1 1 REGB [2] $end
$var wire 1 2 REGB [1] $end
$var wire 1 3 REGB [0] $end

$scope module i1 $end
$var wire 1 4 gnd $end
$var wire 1 5 vcc $end
$var wire 1 6 unknown $end
$var wire 1 7 devoe $end
$var wire 1 8 devclrn $end
$var wire 1 9 devpor $end
$var wire 1 : ww_devoe $end
$var wire 1 ; ww_devclrn $end
$var wire 1 < ww_devpor $end
$var wire 1 = ww_Cout $end
$var wire 1 > ww_Cin $end
$var wire 1 ? ww_CLK $end
$var wire 1 @ ww_INPUT [3] $end
$var wire 1 A ww_INPUT [2] $end
$var wire 1 B ww_INPUT [1] $end
$var wire 1 C ww_INPUT [0] $end
$var wire 1 D ww_OUTPUT [3] $end
$var wire 1 E ww_OUTPUT [2] $end
$var wire 1 F ww_OUTPUT [1] $end
$var wire 1 G ww_OUTPUT [0] $end
$var wire 1 H ww_REGA [3] $end
$var wire 1 I ww_REGA [2] $end
$var wire 1 J ww_REGA [1] $end
$var wire 1 K ww_REGA [0] $end
$var wire 1 L ww_REGB [3] $end
$var wire 1 M ww_REGB [2] $end
$var wire 1 N ww_REGB [1] $end
$var wire 1 O ww_REGB [0] $end
$var wire 1 P \~QUARTUS_CREATED_ADC1~_CHSEL_bus\ [4] $end
$var wire 1 Q \~QUARTUS_CREATED_ADC1~_CHSEL_bus\ [3] $end
$var wire 1 R \~QUARTUS_CREATED_ADC1~_CHSEL_bus\ [2] $end
$var wire 1 S \~QUARTUS_CREATED_ADC1~_CHSEL_bus\ [1] $end
$var wire 1 T \~QUARTUS_CREATED_ADC1~_CHSEL_bus\ [0] $end
$var wire 1 U \CLK~inputclkctrl_INCLK_bus\ [3] $end
$var wire 1 V \CLK~inputclkctrl_INCLK_bus\ [2] $end
$var wire 1 W \CLK~inputclkctrl_INCLK_bus\ [1] $end
$var wire 1 X \CLK~inputclkctrl_INCLK_bus\ [0] $end
$var wire 1 Y \~QUARTUS_CREATED_GND~I_combout\ $end
$var wire 1 Z \~QUARTUS_CREATED_UNVM~~busy\ $end
$var wire 1 [ \~QUARTUS_CREATED_ADC1~~eoc\ $end
$var wire 1 \ \Cout~output_o\ $end
$var wire 1 ] \OUTPUT[3]~output_o\ $end
$var wire 1 ^ \OUTPUT[2]~output_o\ $end
$var wire 1 _ \OUTPUT[1]~output_o\ $end
$var wire 1 ` \OUTPUT[0]~output_o\ $end
$var wire 1 a \REGA[3]~output_o\ $end
$var wire 1 b \REGA[2]~output_o\ $end
$var wire 1 c \REGA[1]~output_o\ $end
$var wire 1 d \REGA[0]~output_o\ $end
$var wire 1 e \REGB[3]~output_o\ $end
$var wire 1 f \REGB[2]~output_o\ $end
$var wire 1 g \REGB[1]~output_o\ $end
$var wire 1 h \REGB[0]~output_o\ $end
$var wire 1 i \CLK~input_o\ $end
$var wire 1 j \CLK~inputclkctrl_outclk\ $end
$var wire 1 k \INPUT[0]~input_o\ $end
$var wire 1 l \inst2~feeder_combout\ $end
$var wire 1 m \inst33~0_combout\ $end
$var wire 1 n \inst33~q\ $end
$var wire 1 o \inst2~q\ $end
$var wire 1 p \INPUT[2]~input_o\ $end
$var wire 1 q \INPUT[1]~input_o\ $end
$var wire 1 r \inst1~feeder_combout\ $end
$var wire 1 s \inst1~q\ $end
$var wire 1 t \inst31|D2~0_combout\ $end
$var wire 1 u \inst99|10~2_combout\ $end
$var wire 1 v \inst10|sub|81~0_combout\ $end
$var wire 1 w \inst47|sub|81~0_combout\ $end
$var wire 1 x \inst11|5~0_combout\ $end
$var wire 1 y \inst69|9~2_combout\ $end
$var wire 1 z \inst4[1]~feeder_combout\ $end
$var wire 1 { \inst31|D4~0_combout\ $end
$var wire 1 | \Cin~input_o\ $end
$var wire 1 } \inst69|10~0_combout\ $end
$var wire 1 ~ \inst69|10~1_combout\ $end
$var wire 1 !! \inst17|sub|76~0_combout\ $end
$var wire 1 "! \inst10|sub|81~1_combout\ $end
$var wire 1 #! \inst17|sub|104~0_combout\ $end
$var wire 1 $! \inst17|sub|78~combout\ $end
$var wire 1 %! \inst9|sub|81~0_combout\ $end
$var wire 1 &! \inst31|D6~combout\ $end
$var wire 1 '! \inst9|sub|81~1_combout\ $end
$var wire 1 (! \inst9|sub|81~2_combout\ $end
$var wire 1 )! \inst9|sub|81~3_combout\ $end
$var wire 1 *! \inst69|9~3_combout\ $end
$var wire 1 +! \inst47|sub|81~1_combout\ $end
$var wire 1 ,! \inst47|sub|81~2_combout\ $end
$var wire 1 -! \inst17|sub|105~0_combout\ $end
$var wire 1 .! \inst17|sub|80~combout\ $end
$var wire 1 /! \inst47|sub|81~3_combout\ $end
$var wire 1 0! \inst99|10~3_combout\ $end
$var wire 1 1! \inst99|10~4_combout\ $end
$var wire 1 2! \inst17|sub|106~0_combout\ $end
$var wire 1 3! \INPUT[3]~input_o\ $end
$var wire 1 4! \inst99|9~0_combout\ $end
$var wire 1 5! \inst99|9~1_combout\ $end
$var wire 1 6! \inst17|sub|82~0_combout\ $end
$var wire 1 7! \inst8|sub|81~0_combout\ $end
$var wire 1 8! \inst8|sub|81~1_combout\ $end
$var wire 1 9! \inst4[3]~feeder_combout\ $end
$var wire 1 :! \inst17|sub|107~0_combout\ $end
$var wire 1 ;! inst94 [3] $end
$var wire 1 <! inst94 [2] $end
$var wire 1 =! inst94 [1] $end
$var wire 1 >! inst94 [0] $end
$var wire 1 ?! inst4 [3] $end
$var wire 1 @! inst4 [2] $end
$var wire 1 A! inst4 [1] $end
$var wire 1 B! inst4 [0] $end
$var wire 1 C! \ALT_INV_inst33~q\ $end
$upscope $end
$upscope $end
$enddefinitions $end
#0
$dumpvars
0!
0"
0#
04
15
x6
17
18
19
1:
1;
1<
0=
0>
0?
0Y
zZ
z[
0\
0]
0^
0_
0`
0a
0b
0c
0d
0e
0f
0g
0h
0i
0j
0k
0l
1m
0n
0o
0p
0q
0r
0s
1t
0u
0v
1w
0x
0y
0z
0{
0|
0}
0~
0!!
0"!
0#!
0$!
1%!
1&!
0'!
0(!
0)!
0*!
0+!
0,!
0-!
0.!
0/!
00!
01!
02!
03!
04!
05!
06!
07!
08!
09!
0:!
1C!
0$
0%
0&
0'
0@
0A
0B
0C
0D
0E
0F
0G
0H
0I
0J
0K
0L
0M
0N
0O
0;!
0<!
0=!
0>!
0?!
0@!
0A!
0B!
1U
1V
1W
0X
0P
0Q
0R
0S
0T
0(
0)
0*
0+
0,
0-
0.
0/
00
01
02
03
$end
#10000
1"
1?
1i
1X
1j
1n
0C!
0m
0t
#20000
0"
0?
0i
0X
0j
#30000
1"
1?
1i
1X
1j
0n
1C!
1m
1t
#40000
0"
0?
0i
0X
0j
#50000
1"
1?
1i
1X
1j
1n
0C!
0m
0t
#60000
0"
0?
0i
0X
0j
#70000
1"
1?
1i
1X
1j
0n
1C!
1m
1t
#80000
0"
0?
0i
0X
0j
#90000
1"
1?
1i
1X
1j
1n
0C!
0m
0t
#100000
0"
1'
0?
1C
1k
0i
0X
1l
1}
1~
0j
#110000
1"
1?
1i
1X
1j
0n
1>!
1C!
1d
1!!
1"!
1m
1t
1K
1`
1/
1G
1+
#120000
0"
0'
1&
0?
0C
1B
1q
0k
0i
0X
0l
1r
0j
#130000
1"
1?
1i
1X
1j
1n
1s
0C!
0m
1{
#140000
0"
1'
0?
1C
1k
0i
0X
1l
0j
#150000
1"
1?
1i
1X
1j
0n
1B!
1C!
1h
0!!
1#!
1m
0{
1O
1$!
13
#160000
0"
0?
0i
0X
0j
#170000
1"
1?
1i
1X
1j
1n
1o
0C!
0m
1v
1x
0}
1(!
1,!
0"!
0`
1)!
0~
0G
1_
1z
1*!
0+
1F
1*
#180000
0"
0?
0i
0X
0j
#190000
1"
1?
1i
1X
1j
0n
0>!
1=!
1C!
1c
0d
0$!
1-!
1!!
0#!
1'!
1m
0v
0x
0%!
0*!
1J
0K
1y
0,!
1/!
10!
1$!
0-!
1.!
0/
1.
1^
0.!
0/!
00!
1*!
1E
0^
1)
0E
0)
#200000
0"
0?
0i
0X
0j
#210000
1"
1?
1i
1X
1j
1n
0C!
0m
1v
1x
0y
1,!
1"!
1`
1~
1G
1+
#220000
0"
0?
0i
0X
0j
#230000
1"
1?
1i
1X
1j
0n
1>!
1C!
1d
0!!
1#!
1m
0v
0x
0*!
1K
1y
1}
0~
0,!
1/!
10!
0$!
1-!
1/
1^
1.!
0/!
00!
1~
1*!
1E
0^
1)
0E
0)
#240000
0"
0?
0i
0X
0j
#250000
1"
1?
1i
1X
1j
1n
0C!
0m
1v
1x
0y
0}
1,!
0"!
0)!
0_
0`
0z
1/!
10!
0~
0*!
0F
0G
1^
11!
0+
0*
1E
1)
#260000
0"
0?
0i
0X
0j
#270000
1"
1?
1i
1X
1j
0n
0>!
0=!
1<!
1C!
1b
0c
0d
1u
0.!
12!
1$!
1+!
0-!
1!!
0#!
0'!
1m
0v
0w
0x
1%!
01!
1I
0J
0K
0(!
0$!
1.!
02!
1)!
11!
0/
0.
1-
1_
1z
0)!
1F
0_
0z
1*
0F
0*
#280000
0"
0?
0i
0X
0j
#290000
1"
1?
1i
1X
1j
1n
0C!
0m
1v
1x
1(!
1"!
1`
1~
1G
1+
#300000
0"
0?
0i
0X
0j
#310000
1"
1?
1i
1X
1j
0n
1>!
1C!
1d
0!!
1#!
1m
0v
0x
1K
1}
0~
0(!
1)!
1$!
1/
1_
1z
0)!
1~
1F
0_
0z
1*
0F
0*
#320000
0"
0?
0i
0X
0j
#330000
1"
1?
1i
1X
1j
1n
0C!
0m
1v
1x
0}
1(!
0"!
0`
1)!
0~
0G
1_
1z
1*!
0+
1F
1*
#340000
0"
0?
0i
0X
0j
#350000
1"
1?
1i
1X
1j
0n
0>!
1=!
1C!
1c
0d
0$!
1-!
1!!
0#!
1'!
1m
0v
0x
0%!
0*!
1J
0K
1y
1$!
0-!
0.!
12!
0/
1.
1.!
02!
1*!
#360000
0"
0?
0i
0X
0j
#370000
1"
1?
1i
1X
1j
1n
0C!
0m
1v
1x
0y
1"!
1`
1~
1G
1+
#380000
0"
0?
0i
0X
0j
#390000
1"
1?
1i
1X
1j
0n
1>!
1C!
1d
0!!
1#!
1m
0v
0x
0*!
1K
1y
1}
0~
0$!
1-!
1/
0.!
12!
1~
1*!
#400000
0"
0?
0i
0X
0j
#410000
1"
1?
1i
1X
1j
1n
0C!
0m
1v
1x
0y
0}
0"!
0)!
0/!
00!
18!
1]
0^
0_
0`
15!
19!
01!
0z
0~
0*!
1D
0E
0F
0G
0+
0*
0)
1(
#420000
0"
0?
0i
0X
0j
#430000
1"
1?
1i
1X
1j
0n
0>!
0=!
0<!
1;!
1C!
1a
0b
0c
0d
16!
1:!
0u
1.!
02!
1$!
0+!
0-!
1!!
0#!
0'!
1m
0v
1w
0x
1%!
11!
1H
0I
0J
0K
1\
14!
05!
17!
0(!
0$!
0.!
0,!
1)!
0:!
1/!
10!
01!
08!
0/
0.
0-
1,
1=
0]
1^
0\
1_
09!
1z
0/!
00!
0)!
18!
15!
1#
0D
1E
0=
1F
1]
0_
0^
19!
0z
1*
1)
0(
0#
1D
0F
0E
0*
0)
1(
#440000
0"
0?
0i
0X
0j
#450000
1"
1?
1i
1X
1j
1n
0C!
0m
1v
1x
1(!
1,!
04!
07!
1"!
1`
1~
1G
1+
#460000
0"
0?
0i
0X
0j
#470000
1"
1?
1i
1X
1j
0n
1>!
1C!
1d
0!!
1#!
1m
0v
0x
1K
1}
0~
0(!
0,!
14!
05!
17!
1)!
1/!
10!
08!
1$!
1/
0]
1^
1_
09!
1z
18!
15!
0/!
00!
0)!
1~
0D
1E
1F
0_
0^
1]
0z
19!
1*
1)
0(
0F
0E
1D
0*
0)
1(
#480000
0"
0?
0i
0X
0j
#490000
1"
1?
1i
1X
1j
1n
0C!
0m
1v
1x
0}
1(!
1,!
04!
07!
0"!
0`
1)!
0~
0G
1_
1z
1*!
0+
1F
1*
#500000
0"
0?
0i
0X
0j
#510000
1"
1?
1i
1X
1j
0n
0>!
1=!
1C!
1c
0d
0$!
1-!
1!!
0#!
1'!
1m
0v
0x
0%!
0*!
1J
0K
1y
0,!
14!
05!
17!
1/!
10!
08!
1$!
0-!
1.!
0/
1.
0]
1^
0.!
09!
18!
15!
0/!
00!
1*!
0D
1E
0^
1]
19!
1)
0(
0E
1D
0)
1(
#520000
0"
0?
0i
0X
0j
#530000
1"
1?
1i
1X
1j
1n
0C!
0m
1v
1x
0y
1,!
04!
07!
1"!
1`
1~
1G
1+
#540000
0"
0?
0i
0X
0j
#550000
1"
1?
1i
1X
1j
0n
1>!
1C!
1d
0!!
1#!
1m
0v
0x
0*!
1K
1y
1}
0~
0,!
14!
05!
17!
1/!
10!
08!
0$!
1-!
1/
0]
1^
1.!
09!
18!
15!
0/!
00!
1~
1*!
0D
1E
0^
1]
19!
1)
0(
0E
1D
0)
1(
#560000
0"
0?
0i
0X
0j
#570000
1"
1?
1i
1X
1j
1n
0C!
0m
1v
1x
0y
0}
1,!
04!
07!
0"!
0)!
0_
0`
0z
1/!
10!
0~
0*!
0F
0G
1^
11!
0+
0*
1E
1)
#580000
0"
0?
0i
0X
0j
#590000
1"
1?
1i
1X
1j
0n
0>!
0=!
1<!
1C!
1b
0c
0d
1u
0.!
12!
1$!
1+!
0-!
1!!
0#!
0'!
1m
0v
0w
0x
1%!
01!
1I
0J
0K
14!
05!
17!
0(!
0$!
1.!
02!
1)!
08!
1:!
11!
0/
0.
1-
1\
0]
1_
09!
1z
0:!
0)!
18!
15!
1=
0D
1F
1]
0_
0\
19!
0z
1#
1*
0(
1D
0F
0=
0*
1(
0#
#600000
0"
0?
0i
0X
0j
#610000
1"
1?
1i
1X
1j
1n
0C!
0m
1v
1x
1(!
04!
07!
1"!
1`
1~
1G
1+
#620000
0"
0?
0i
0X
0j
#630000
1"
1?
1i
1X
1j
0n
1>!
1C!
1d
0!!
1#!
1m
0v
0x
1K
1}
0~
0(!
14!
05!
17!
1)!
08!
1$!
1/
0]
1_
09!
1z
18!
15!
0)!
1~
0D
1F
0_
1]
0z
19!
1*
0(
0F
1D
0*
1(
#640000
0"
0?
0i
0X
0j
#650000
1"
1?
1i
1X
1j
1n
0C!
0m
1v
1x
0}
1(!
04!
07!
0"!
0`
1)!
0~
0G
1_
1z
1*!
0+
1F
1*
#660000
0"
0?
0i
0X
0j
#670000
1"
1?
1i
1X
1j
0n
0>!
1=!
1C!
1c
0d
0$!
1-!
1!!
0#!
1'!
1m
0v
0x
0%!
0*!
1J
0K
1y
14!
05!
17!
08!
1$!
0-!
0.!
12!
0/
1.
0]
1:!
1.!
02!
09!
18!
15!
1*!
0D
1]
1\
19!
0:!
0(
1D
1=
0\
1(
1#
0=
0#
#680000
0"
0?
0i
0X
0j
#690000
1"
1?
1i
1X
1j
1n
0C!
0m
1v
1x
0y
04!
07!
1"!
1`
1~
1G
1+
#700000
0"
0?
0i
0X
0j
#710000
1"
1?
1i
1X
1j
0n
1>!
1C!
1d
0!!
1#!
1m
0v
0x
0*!
1K
1y
1}
0~
14!
05!
17!
08!
0$!
1-!
1/
0]
0.!
12!
09!
18!
15!
1~
1*!
0D
1]
19!
1:!
0(
1D
1\
1(
1=
1#
#720000
0"
0?
0i
0X
0j
#730000
1"
1?
1i
1X
1j
1n
0C!
0m
1v
1x
0y
0}
04!
07!
0"!
0)!
0/!
00!
0^
0_
0`
01!
0z
08!
0~
0*!
0E
0F
0G
0]
05!
09!
0+
0*
0)
0D
0(
#740000
0"
0?
0i
0X
0j
#750000
1"
1?
1i
1X
1j
0n
0>!
0=!
0<!
0;!
1C!
0a
0b
0c
0d
06!
0:!
0u
1.!
02!
1$!
0+!
0-!
1!!
0#!
0'!
1m
0v
1w
0x
1%!
11!
0H
0I
0J
0K
0\
0(!
0$!
0.!
0,!
1)!
1/!
10!
01!
0/
0.
0-
0,
0=
1^
1_
1z
0/!
00!
0)!
0#
1E
1F
0_
0^
0z
1*
1)
0F
0E
0*
0)
#760000
0"
0?
0i
0X
0j
#770000
1"
1?
1i
1X
1j
1n
0C!
0m
1v
1x
1(!
1,!
1"!
1`
1~
1G
1+
#780000
0"
0?
0i
0X
0j
#790000
1"
1?
1i
1X
1j
0n
1>!
1C!
1d
0!!
1#!
1m
0v
0x
1K
1}
0~
0(!
0,!
1)!
1/!
10!
1$!
1/
1^
1_
1z
0/!
00!
0)!
1~
1E
1F
0_
0^
0z
1*
1)
0F
0E
0*
0)
#800000
0"
0?
0i
0X
0j
#810000
1"
1?
1i
1X
1j
1n
0C!
0m
1v
1x
0}
1(!
1,!
0"!
0`
1)!
0~
0G
1_
1z
1*!
0+
1F
1*
#820000
0"
0&
0?
0B
0q
0i
0X
0r
0j
#830000
1"
1?
1i
1X
1j
0n
0>!
1=!
1C!
1c
0d
0$!
1-!
1!!
0#!
1'!
1m
0v
0x
0%!
0*!
1J
0K
1y
0,!
1/!
10!
1$!
0-!
1.!
0/
1.
1^
0.!
0/!
00!
1*!
1E
0^
1)
0E
0)
#840000
0"
0?
0i
0X
0j
#850000
1"
1?
1i
1X
1j
1n
0s
0C!
0m
0w
1x
1%!
0&!
0'!
1+!
0y
1,!
0(!
0)!
1/!
10!
1^
0_
11!
0z
0*!
1E
0F
0*
1)
#860000
0"
0?
0i
0X
0j
#870000
1"
1?
1i
1X
1j
0n
0=!
1<!
1C!
1b
0c
1u
1.!
17!
0$!
0+!
1m
0x
1&!
01!
1I
0J
1+!
07!
18!
11!
0.
1-
1]
19!
08!
1D
0]
09!
1(
0D
0(
#880000
0"
0?
0i
0X
0j
#890000
1"
1?
1i
1X
1j
1n
0C!
0m
1w
1x
0%!
0&!
0+!
17!
18!
0,!
1]
0/!
00!
15!
19!
1D
0^
01!
1(
0E
0)
#900000
0"
0'
0?
0C
0k
0i
0X
0l
0j
#910000
1"
1?
1i
1X
1j
0n
0<!
1;!
1C!
1a
0b
16!
0u
0.!
07!
1m
0x
1%!
1&!
11!
1H
0I
14!
05!
17!
01!
08!
0-
1,
0]
09!
18!
15!
0D
1]
19!
0(
1D
1(
#920000
0"
0?
0i
0X
0j
#930000
1"
1?
1i
1X
1j
1n
0o
0C!
0m
0t
04!
05!
#940000
0"
0?
0i
0X
0j
#950000
1"
1?
1i
1X
1j
0n
0;!
1C!
0a
06!
07!
1m
1t
0H
08!
0,
0]
09!
0D
0(
#960000
0"
0?
0i
0X
0j
#970000
1"
1?
1i
1X
1j
1n
0C!
0m
0t
#980000
0"
0?
0i
0X
0j
#990000
1"
1?
1i
1X
1j
0n
1C!
1m
1t
