sixth/Lab5 quiz/Lab5_Quiz_restored/simulation/qsim/Lab5_Quiz.msim.vcd
$comment
	File created using the following command:
		vcd file Lab5_Quiz.msim.vcd -direction
$end
$date
	Fri Jul 16 15:23:05 2021
$end
$version
	ModelSim Version 10.5b
$end
$timescale
	1ps
$end

$scope module lab5_quiz_vhd_vec_tst $end
$var wire 1 ! A $end
$var wire 1 " B $end
$var wire 1 # C $end
$var wire 1 $ CLK $end
$var wire 1 % D $end
$var wire 1 & E $end
$var wire 1 ' Q [2] $end
$var wire 1 ( Q [1] $end
$var wire 1 ) Q [0] $end

$scope module i1 $end
$var wire 1 * gnd $end
$var wire 1 + vcc $end
$var wire 1 , unknown $end
$var wire 1 - devoe $end
$var wire 1 . devclrn $end
$var wire 1 / devpor $end
$var wire 1 0 ww_devoe $end
$var wire 1 1 ww_devclrn $end
$var wire 1 2 ww_devpor $end
$var wire 1 3 ww_A $end
$var wire 1 4 ww_Q [2] $end
$var wire 1 5 ww_Q [1] $end
$var wire 1 6 ww_Q [0] $end
$var wire 1 7 ww_CLK $end
$var wire 1 8 ww_D $end
$var wire 1 9 ww_E $end
$var wire 1 : ww_B $end
$var wire 1 ; ww_C $end
$var wire 1 < \CLK~inputclkctrl_INCLK_bus\ [3] $end
$var wire 1 = \CLK~inputclkctrl_INCLK_bus\ [2] $end
$var wire 1 > \CLK~inputclkctrl_INCLK_bus\ [1] $end
$var wire 1 ? \CLK~inputclkctrl_INCLK_bus\ [0] $end
$var wire 1 @ \~QUARTUS_CREATED_GND~I_combout\ $end
$var wire 1 A \~QUARTUS_CREATED_UNVM~~busy\ $end
$var wire 1 B \A~output_o\ $end
$var wire 1 C \Q[2]~output_o\ $end
$var wire 1 D \Q[1]~output_o\ $end
$var wire 1 E \Q[0]~output_o\ $end
$var wire 1 F \B~output_o\ $end
$var wire 1 G \C~output_o\ $end
$var wire 1 H \CLK~input_o\ $end
$var wire 1 I \CLK~inputclkctrl_outclk\ $end
$var wire 1 J \E~input_o\ $end
$var wire 1 K \D~input_o\ $end
$var wire 1 L \inst|D1~0_combout\ $end
$var wire 1 M \inst|D1~1_combout\ $end
$var wire 1 N \inst|C~0_combout\ $end
$var wire 1 O \inst|D2~0_combout\ $end
$var wire 1 P \inst|D2~1_combout\ $end
$var wire 1 Q \inst|D0~0_combout\ $end
$var wire 1 R \inst|D0~1_combout\ $end
$var wire 1 S \inst|A~0_combout\ $end
$var wire 1 T \inst|B~2_combout\ $end
$var wire 1 U \inst|B~3_combout\ $end
$var wire 1 V \inst|C~1_combout\ $end
$var wire 1 W inst2 [2] $end
$var wire 1 X inst2 [1] $end
$var wire 1 Y inst2 [0] $end
$var wire 1 Z \inst|ALT_INV_A~0_combout\ $end
$upscope $end
$upscope $end
$enddefinitions $end
#0
$dumpvars
1!
1"
0#
0$
0%
0&
0*
1+
x,
1-
1.
1/
10
11
12
13
07
08
09
1:
0;
0@
zA
1B
0C
0D
0E
1F
0G
0H
0I
0J
0K
1L
1M
0N
0O
0P
0Q
0R
0S
1T
1U
0V
1Z
04
05
06
0W
0X
0Y
1<
1=
1>
0?
0'
0(
0)
$end
#10000
1$
17
1H
1?
1I
1X
1D
0L
1N
1Q
1S
0T
0Z
15
0U
1R
1(
0B
0F
03
0:
0!
0"
#20000
0$
07
0H
0?
0I
#30000
1$
17
1H
1?
1I
1Y
1E
0M
1P
1T
1V
16
1G
1U
1)
1;
1F
1#
1:
1"
#40000
0$
07
0H
0?
0I
#50000
1$
17
1H
1?
1I
0X
1W
1C
0D
0U
0N
0Q
14
05
0F
0R
0P
0(
1'
0:
0"
#60000
0$
07
0H
0?
0I
#70000
1$
17
1H
1?
1I
0W
0Y
0E
0C
0S
1L
1U
0V
1Z
06
04
0G
1F
1M
0)
0'
1B
0;
1:
13
0#
1"
1!
#80000
0$
07
0H
0?
0I
#90000
1$
17
1H
1?
1I
1X
1D
0L
1N
1Q
1S
0T
0Z
15
0U
1R
1(
0B
0F
03
0:
0!
0"
#100000
0$
07
0H
0?
0I
#110000
1$
17
1H
1?
1I
1Y
1E
0M
1P
1T
1V
16
1G
1U
1)
1;
1F
1#
1:
1"
#120000
0$
07
0H
0?
0I
#130000
1$
17
1H
1?
1I
0X
1W
1C
0D
0U
0N
0Q
14
05
0F
0R
0P
0(
1'
0:
0"
#140000
0$
07
0H
0?
0I
#150000
1$
17
1H
1?
1I
0W
0Y
0E
0C
0S
1L
1U
0V
1Z
06
04
0G
1F
1M
0)
0'
1B
0;
1:
13
0#
1"
1!
#160000
0$
07
0H
0?
0I
#170000
1$
17
1H
1?
1I
1X
1D
0L
1N
1Q
1S
0T
0Z
15
0U
1R
1(
0B
0F
03
0:
0!
0"
#180000
0$
07
0H
0?
0I
#190000
1$
17
1H
1?
1I
1Y
1E
0M
1P
1T
1V
16
1G
1U
1)
1;
1F
1#
1:
1"
#200000
0$
07
0H
0?
0I
#210000
1$
17
1H
1?
1I
0X
1W
1C
0D
0U
0N
0Q
14
05
0F
0R
0P
0(
1'
0:
0"
#220000
0$
07
0H
0?
0I
#230000
1$
17
1H
1?
1I
0W
0Y
0E
0C
0S
1L
1U
0V
1Z
06
04
0G
1F
1M
0)
0'
1B
0;
1:
13
0#
1"
1!
#240000
0$
07
0H
0?
0I
#250000
1$
1&
17
19
1J
1H
1?
1I
1X
1D
0L
1N
1S
0Z
15
1P
0M
1(
0B
03
0!
#260000
0$
07
0H
0?
0I
#270000
1$
17
1H
1?
1I
0X
1W
1C
0D
0U
0N
1O
1R
0S
1V
1Z
14
05
1G
0F
0(
1'
1B
1;
0:
13
1#
0"
1!
#280000
0$
07
0H
0?
0I
#290000
1$
17
1H
1?
1I
1Y
1E
0O
0R
1S
0Z
16
0P
1)
0B
03
0!
#300000
0$
07
0H
0?
0I
#310000
1$
17
1H
1?
1I
0W
0Y
0E
0C
0S
1L
1U
0V
1Z
06
04
0G
1F
1M
0)
0'
1B
0;
1:
13
0#
1"
1!
#320000
0$
07
0H
0?
0I
#330000
1$
17
1H
1?
1I
1X
1D
0L
1N
1S
0Z
15
1P
0M
1(
0B
03
0!
#340000
0$
07
0H
0?
0I
#350000
1$
17
1H
1?
1I
0X
1W
1C
0D
0U
0N
1O
1R
0S
1V
1Z
14
05
1G
0F
0(
1'
1B
1;
0:
13
1#
0"
1!
#360000
0$
07
0H
0?
0I
#370000
1$
17
1H
1?
1I
1Y
1E
0O
0R
1S
0Z
16
0P
1)
0B
03
0!
#380000
0$
07
0H
0?
0I
#390000
1$
17
1H
1?
1I
0W
0Y
0E
0C
0S
1L
1U
0V
1Z
06
04
0G
1F
1M
0)
0'
1B
0;
1:
13
0#
1"
1!
#400000
0$
07
0H
0?
0I
#410000
1$
17
1H
1?
1I
1X
1D
0L
1N
1S
0Z
15
1P
0M
1(
0B
03
0!
#420000
0$
07
0H
0?
0I
#430000
1$
17
1H
1?
1I
0X
1W
1C
0D
0U
0N
1O
1R
0S
1V
1Z
14
05
1G
0F
0(
1'
1B
1;
0:
13
1#
0"
1!
#440000
0$
07
0H
0?
0I
#450000
1$
17
1H
1?
1I
1Y
1E
0O
0R
1S
0Z
16
0P
1)
0B
03
0!
#460000
0$
07
0H
0?
0I
#470000
1$
17
1H
1?
1I
0W
0Y
0E
0C
0S
1L
1U
0V
1Z
06
04
0G
1F
1M
0)
0'
1B
0;
1:
13
0#
1"
1!
#480000
0$
07
0H
0?
0I
#490000
1$
17
1H
1?
1I
1X
1D
0L
1N
1S
0Z
15
1P
0M
1(
0B
03
0!
#500000
0$
0&
1%
07
09
18
1K
0J
0H
0?
1M
0P
1Q
0T
0U
1R
0I
0F
0:
0"
#510000
1$
17
1H
1?
1I
1Y
1E
0M
1P
1T
1V
16
1G
1U
1)
1;
1F
1#
1:
1"
#520000
0$
07
0H
0?
0I
#530000
1$
17
1H
1?
1I
0X
1W
1C
0D
0U
0N
1O
14
05
0F
0(
1'
0:
0"
#540000
0$
07
0H
0?
0I
#550000
1$
17
1H
1?
1I
#560000
0$
07
0H
0?
0I
#570000
1$
17
1H
1?
1I
#580000
0$
07
0H
0?
0I
#590000
1$
17
1H
1?
1I
#600000
0$
07
0H
0?
0I
#610000
1$
17
1H
1?
1I
#620000
0$
07
0H
0?
0I
#630000
1$
17
1H
1?
1I
#640000
0$
07
0H
0?
0I
#650000
1$
17
1H
1?
1I
#660000
0$
07
0H
0?
0I
#670000
1$
17
1H
1?
1I
#680000
0$
07
0H
0?
0I
#690000
1$
17
1H
1?
1I
#700000
0$
07
0H
0?
0I
#710000
1$
17
1H
1?
1I
#720000
0$
07
0H
0?
0I
#730000
1$
17
1H
1?
1I
#740000
0$
07
0H
0?
0I
#750000
1$
1&
17
19
1J
1H
1?
1I
#760000
0$
07
0H
0?
0I
#770000
1$
17
1H
1?
1I
#780000
0$
07
0H
0?
0I
#790000
1$
17
1H
1?
1I
#800000
0$
07
0H
0?
0I
#810000
1$
17
1H
1?
1I
#820000
0$
07
0H
0?
0I
#830000
1$
17
1H
1?
1I
#840000
0$
07
0H
0?
0I
#850000
1$
17
1H
1?
1I
#860000
0$
07
0H
0?
0I
#870000
1$
17
1H
1?
1I
#880000
0$
07
0H
0?
0I
#890000
1$
17
1H
1?
1I
#900000
0$
07
0H
0?
0I
#910000
1$
17
1H
1?
1I
#920000
0$
07
0H
0?
0I
#930000
1$
17
1H
1?
1I
#940000
0$
07
0H
0?
0I
#950000
1$
17
1H
1?
1I
#960000
0$
07
0H
0?
0I
#970000
1$
17
1H
1?
1I
#980000
0$
07
0H
0?
0I
#990000
1$
17
1H
1?
1I
