second/lab1 quiz/simulation/qsim/Lab1Quiz.msim.vcd
$comment
	File created using the following command:
		vcd file Lab1Quiz.msim.vcd -direction
$end
$date
	Fri May 28 15:27:45 2021
$end
$version
	ModelSim Version 10.5b
$end
$timescale
	1ps
$end

$scope module Lab1Quiz_vlg_vec_tst $end
$var reg 1 ! A $end
$var reg 1 " B $end
$var reg 1 # C $end
$var wire 1 $ Y $end

$scope module i1 $end
$var wire 1 % gnd $end
$var wire 1 & vcc $end
$var wire 1 ' unknown $end
$var tri1 1 ( devclrn $end
$var tri1 1 ) devpor $end
$var tri1 1 * devoe $end
$var wire 1 + ~QUARTUS_CREATED_GND~I_combout $end
$var wire 1 , ~QUARTUS_CREATED_UNVM~~busy $end
$var wire 1 - ~QUARTUS_CREATED_ADC1~~eoc $end
$var wire 1 . Y~output_o $end
$var wire 1 / A~input_o $end
$var wire 1 0 B~input_o $end
$var wire 1 1 C~input_o $end
$var wire 1 2 inst2~combout $end
$upscope $end
$upscope $end
$enddefinitions $end
#0
$dumpvars
0!
0"
0#
0$
0%
1&
x'
1(
1)
1*
0+
z,
z-
0.
0/
00
01
12
$end
#50000
1#
11
#100000
1"
0#
01
10
02
1.
1$
#150000
1#
11
12
0.
0$
#200000
1!
0"
0#
01
00
1/
02
1.
1$
#250000
1#
11
12
0.
0$
#300000
1"
0#
01
10
02
1.
1$
#350000
1#
11
12
0.
0$
#400000
0!
0"
0#
01
00
0/
#450000
1#
11
#500000
1"
0#
01
10
02
1.
1$
#550000
1#
11
12
0.
0$
#600000
1!
0"
0#
01
00
1/
02
1.
1$
#650000
1#
11
12
0.
0$
#700000
1"
0#
01
10
02
1.
1$
#750000
1#
11
12
0.
0$
#800000
0!
0"
0#
01
00
0/
#850000
1#
11
#900000
1"
0#
01
10
02
1.
1$
#950000
1#
11
12
0.
0$
#1000000
1!
0"
0#
01
00
1/
02
1.
1$
#1050000
1#
11
12
0.
0$
#1100000
1"
0#
01
10
02
1.
1$
#1150000
1#
11
12
0.
0$
