second/partd/simulation/qsim/Lab1d.msim.vcd
$comment
	File created using the following command:
		vcd file Lab1d.msim.vcd -direction
$end
$date
	Fri May 28 10:46:47 2021
$end
$version
	ModelSim Version 10.5b
$end
$timescale
	1ps
$end

$scope module Lab1d_vlg_vec_tst $end
$var reg 1 ! A $end
$var reg 1 " B $end
$var reg 1 # C $end
$var reg 1 $ D $end
$var wire 1 % Y $end
$var wire 1 & Z $end

$scope module i1 $end
$var wire 1 ' gnd $end
$var wire 1 ( vcc $end
$var wire 1 ) unknown $end
$var tri1 1 * devclrn $end
$var tri1 1 + devpor $end
$var tri1 1 , devoe $end
$var wire 1 - B~combout $end
$var wire 1 . D~combout $end
$var wire 1 / A~combout $end
$var wire 1 0 C~combout $end
$var wire 1 1 inst5~0_combout $end
$var wire 1 2 inst16~0_combout $end
$upscope $end
$upscope $end
$enddefinitions $end
#0
$dumpvars
0!
0"
0#
0$
x%
x&
0'
1(
x)
1*
1+
1,
x-
x.
x/
x0
x1
x2
$end
#907
0-
0.
0/
00
#5765
12
#6465
01
#10325
0&
#10510
1%
#50000
1$
#50907
1.
#100000
1#
0$
#100907
0.
10
#150000
1$
#150907
1.
#200000
1"
0#
0$
#200907
0.
00
1-
#250000
1$
#250907
1.
#300000
1#
0$
#300907
0.
10
#306279
11
#310324
0%
#350000
1$
#350907
1.
#356385
01
#360430
1%
#400000
1!
0"
0#
0$
#400907
0.
00
0-
1/
#406384
02
#410944
1&
#450000
1$
#450907
1.
#500000
1#
0$
#500907
0.
10
#550000
1$
#550907
1.
#556384
12
#560944
0&
#600000
1"
0#
0$
#600907
0.
00
1-
#650000
1$
#650907
1.
#700000
1#
0$
#700907
0.
10
#750000
1$
#750907
1.
#800000
0!
0"
0#
0$
#800907
0.
00
0-
0/
#850000
1$
#850907
1.
#900000
1#
0$
#900907
0.
10
#950000
1$
#950907
1.
#1000000
1"
0#
0$
#1000907
0.
00
1-
#1050000
1$
#1050907
1.
#1100000
1#
0$
#1100907
0.
10
#1106279
11
#1110324
0%
#1150000
1$
#1150907
1.
#1156385
01
#1160430
1%
