second/simulation/qsim/Lab1a.msim.vcd
$comment
	File created using the following command:
		vcd file Lab1a.msim.vcd -direction
$end
$date
	Thu May 27 04:06:37 2021
$end
$version
	ModelSim Version 10.5b
$end
$timescale
	1ps
$end

$scope module Lab1a_vlg_vec_tst $end
$var reg 1 ! A $end
$var reg 1 " B $end
$var reg 1 # C $end
$var reg 1 $ D $end
$var wire 1 % X $end

$scope module i1 $end
$var wire 1 & gnd $end
$var wire 1 ' vcc $end
$var wire 1 ( unknown $end
$var tri1 1 ) devclrn $end
$var tri1 1 * devpor $end
$var tri1 1 + devoe $end
$var wire 1 , ~QUARTUS_CREATED_GND~I_combout $end
$var wire 1 - D~input_o $end
$var wire 1 . B~input_o $end
$var wire 1 / A~input_o $end
$var wire 1 0 C~input_o $end
$var wire 1 1 inst3~0_combout $end
$upscope $end
$upscope $end
$enddefinitions $end
#0
$dumpvars
0!
0"
0#
0$
0%
0&
1'
x(
1)
1*
1+
0,
0-
0.
0/
00
11
$end
#50000
1$
1-
#100000
1#
0$
10
0-
01
1%
#150000
1$
1-
11
0%
#200000
1"
0#
0$
1.
00
0-
01
1%
#250000
1$
1-
#300000
1#
0$
10
0-
#350000
1$
1-
#400000
1!
0"
0#
0$
1/
0.
00
0-
11
0%
#450000
1$
1-
#500000
1#
0$
10
0-
01
1%
#550000
1$
1-
11
0%
#600000
1"
0#
0$
1.
00
0-
#650000
1$
1-
#700000
1#
0$
10
0-
01
1%
#750000
1$
1-
11
0%
#800000
0!
0"
0#
0$
0/
0.
00
0-
#850000
1$
1-
#900000
1#
0$
10
0-
01
1%
#950000
1$
1-
11
0%
#1000000
1"
0#
0$
1.
00
0-
01
1%
#1050000
1$
1-
#1100000
1#
0$
10
0-
#1150000
1$
1-
